^C:\USERS\GLLM\CODE\OF_V0.10.0_VS2017_RELEASE\ADDONS\OFXGUI\SRC\OFXBASEGUI.CPP|C:\USERS\GLLM\CODE\OF_V0.10.0_VS2017_RELEASE\ADDONS\OFXGUI\SRC\OFXBUTTON.CPP|C:\USERS\GLLM\CODE\OF_V0.10.0_VS2017_RELEASE\ADDONS\OFXGUI\SRC\OFXCOLORPICKER.CPP|C:\USERS\GLLM\CODE\OF_V0.10.0_VS2017_RELEASE\ADDONS\OFXGUI\SRC\OFXGUIGROUP.CPP|C:\USERS\GLLM\CODE\OF_V0.10.0_VS2017_RELEASE\ADDONS\OFXGUI\SRC\OFXINPUTFIELD.CPP|C:\USERS\GLLM\CODE\OF_V0.10.0_VS2017_RELEASE\ADDONS\OFXGUI\SRC\OFXLABEL.CPP|C:\USERS\GLLM\CODE\OF_V0.10.0_VS2017_RELEASE\ADDONS\OFXGUI\SRC\OFXPANEL.CPP|C:\USERS\GLLM\CODE\OF_V0.10.0_VS2017_RELEASE\ADDONS\OFXGUI\SRC\OFXSLIDER.CPP|C:\USERS\GLLM\CODE\OF_V0.10.0_VS2017_RELEASE\ADDONS\OFXGUI\SRC\OFXSLIDERGROUP.CPP|C:\USERS\GLLM\CODE\OF_V0.10.0_VS2017_RELEASE\ADDONS\OFXGUI\SRC\OFXTOGGLE.CPP
C:\USERS\GLLM\CODE\OF_V0.10.0_VS2017_RELEASE\APPS\MYAPPS\ADDONS\OFXGUI\SRC\OFXBASEGUI.OBJ
C:\USERS\GLLM\CODE\OF_V0.10.0_VS2017_RELEASE\APPS\MYAPPS\ADDONS\OFXGUI\SRC\OFXGUIGROUP.OBJ
C:\USERS\GLLM\CODE\OF_V0.10.0_VS2017_RELEASE\APPS\MYAPPS\ADDONS\OFXGUI\SRC\OFXSLIDER.OBJ
C:\USERS\GLLM\CODE\OF_V0.10.0_VS2017_RELEASE\APPS\MYAPPS\ADDONS\OFXGUI\SRC\OFXLABEL.OBJ
C:\USERS\GLLM\CODE\OF_V0.10.0_VS2017_RELEASE\APPS\MYAPPS\ADDONS\OFXGUI\SRC\OFXTOGGLE.OBJ
C:\USERS\GLLM\CODE\OF_V0.10.0_VS2017_RELEASE\APPS\MYAPPS\ADDONS\OFXGUI\SRC\OFXPANEL.OBJ
C:\USERS\GLLM\CODE\OF_V0.10.0_VS2017_RELEASE\APPS\MYAPPS\ADDONS\OFXGUI\SRC\OFXSLIDERGROUP.OBJ
C:\USERS\GLLM\CODE\OF_V0.10.0_VS2017_RELEASE\APPS\MYAPPS\ADDONS\OFXGUI\SRC\OFXINPUTFIELD.OBJ
C:\USERS\GLLM\CODE\OF_V0.10.0_VS2017_RELEASE\APPS\MYAPPS\ADDONS\OFXGUI\SRC\OFXBUTTON.OBJ
C:\USERS\GLLM\CODE\OF_V0.10.0_VS2017_RELEASE\APPS\MYAPPS\ADDONS\OFXGUI\SRC\OFXCOLORPICKER.OBJ
^C:\USERS\GLLM\CODE\OF_V0.10.0_VS2017_RELEASE\APPS\MYAPPS\SQUARETRACKING\SRC\MAIN.CPP|C:\USERS\GLLM\CODE\OF_V0.10.0_VS2017_RELEASE\APPS\MYAPPS\SQUARETRACKING\SRC\OFAPP.CPP
C:\USERS\GLLM\CODE\OF_V0.10.0_VS2017_RELEASE\APPS\MYAPPS\SQUARETRACKING\OBJ\DEBUG\SRC\MAIN.OBJ
C:\USERS\GLLM\CODE\OF_V0.10.0_VS2017_RELEASE\APPS\MYAPPS\SQUARETRACKING\OBJ\DEBUG\SRC\OFAPP.OBJ
^C:\USERS\GLLM\CODE\OF_V0.10.0_VS2017_RELEASE\APPS\MYAPPS\SQUARETRACKING\SRC\MAIN.CPP
C:\USERS\GLLM\CODE\OF_V0.10.0_VS2017_RELEASE\APPS\MYAPPS\SQUARETRACKING\OBJ\DEBUG\VC141.PDB
^C:\USERS\GLLM\CODE\OF_V0.10.0_VS2017_RELEASE\APPS\MYAPPS\SQUARETRACKING\SRC\OFAPP.CPP
C:\USERS\GLLM\CODE\OF_V0.10.0_VS2017_RELEASE\APPS\MYAPPS\SQUARETRACKING\OBJ\DEBUG\VC141.PDB
^C:\USERS\GLLM\CODE\OF_V0.10.0_VS2017_RELEASE\ADDONS\OFXGUI\SRC\OFXBASEGUI.CPP
C:\USERS\GLLM\CODE\OF_V0.10.0_VS2017_RELEASE\APPS\MYAPPS\SQUARETRACKING\OBJ\DEBUG\VC141.PDB
^C:\USERS\GLLM\CODE\OF_V0.10.0_VS2017_RELEASE\ADDONS\OFXGUI\SRC\OFXBUTTON.CPP
C:\USERS\GLLM\CODE\OF_V0.10.0_VS2017_RELEASE\APPS\MYAPPS\SQUARETRACKING\OBJ\DEBUG\VC141.PDB
^C:\USERS\GLLM\CODE\OF_V0.10.0_VS2017_RELEASE\ADDONS\OFXGUI\SRC\OFXCOLORPICKER.CPP
C:\USERS\GLLM\CODE\OF_V0.10.0_VS2017_RELEASE\APPS\MYAPPS\SQUARETRACKING\OBJ\DEBUG\VC141.PDB
^C:\USERS\GLLM\CODE\OF_V0.10.0_VS2017_RELEASE\ADDONS\OFXGUI\SRC\OFXGUIGROUP.CPP
C:\USERS\GLLM\CODE\OF_V0.10.0_VS2017_RELEASE\APPS\MYAPPS\SQUARETRACKING\OBJ\DEBUG\VC141.PDB
^C:\USERS\GLLM\CODE\OF_V0.10.0_VS2017_RELEASE\ADDONS\OFXGUI\SRC\OFXINPUTFIELD.CPP
C:\USERS\GLLM\CODE\OF_V0.10.0_VS2017_RELEASE\APPS\MYAPPS\SQUARETRACKING\OBJ\DEBUG\VC141.PDB
^C:\USERS\GLLM\CODE\OF_V0.10.0_VS2017_RELEASE\ADDONS\OFXGUI\SRC\OFXLABEL.CPP
C:\USERS\GLLM\CODE\OF_V0.10.0_VS2017_RELEASE\APPS\MYAPPS\SQUARETRACKING\OBJ\DEBUG\VC141.PDB
^C:\USERS\GLLM\CODE\OF_V0.10.0_VS2017_RELEASE\ADDONS\OFXGUI\SRC\OFXPANEL.CPP
C:\USERS\GLLM\CODE\OF_V0.10.0_VS2017_RELEASE\APPS\MYAPPS\SQUARETRACKING\OBJ\DEBUG\VC141.PDB
^C:\USERS\GLLM\CODE\OF_V0.10.0_VS2017_RELEASE\ADDONS\OFXGUI\SRC\OFXSLIDER.CPP
C:\USERS\GLLM\CODE\OF_V0.10.0_VS2017_RELEASE\APPS\MYAPPS\SQUARETRACKING\OBJ\DEBUG\VC141.PDB
^C:\USERS\GLLM\CODE\OF_V0.10.0_VS2017_RELEASE\ADDONS\OFXGUI\SRC\OFXSLIDERGROUP.CPP
C:\USERS\GLLM\CODE\OF_V0.10.0_VS2017_RELEASE\APPS\MYAPPS\SQUARETRACKING\OBJ\DEBUG\VC141.PDB
^C:\USERS\GLLM\CODE\OF_V0.10.0_VS2017_RELEASE\ADDONS\OFXGUI\SRC\OFXTOGGLE.CPP
C:\USERS\GLLM\CODE\OF_V0.10.0_VS2017_RELEASE\APPS\MYAPPS\SQUARETRACKING\OBJ\DEBUG\VC141.PDB
