^C:\USERS\GLLM\CODE\OF_V0.10.0_VS2017_RELEASE\APPS\MYAPPS\SQUARETRACKING\SRC\MAIN.CPP
/c /IC:\USERS\GLLM\CODE\OF_V0.10.0_VS2017_RELEASE\LIBS\OPENFRAMEWORKSCOMPILED\PROJECT\VS\\..\..\..\..\\LIBS\OPENFRAMEWORKS /IC:\USERS\GLLM\CODE\OF_V0.10.0_VS2017_RELEASE\LIBS\OPENFRAMEWORKSCOMPILED\PROJECT\VS\\..\..\..\..\\LIBS\OPENFRAMEWORKS\GRAPHICS /IC:\USERS\GLLM\CODE\OF_V0.10.0_VS2017_RELEASE\LIBS\OPENFRAMEWORKSCOMPILED\PROJECT\VS\\..\..\..\..\\LIBS\OPENFRAMEWORKS\APP /IC:\USERS\GLLM\CODE\OF_V0.10.0_VS2017_RELEASE\LIBS\OPENFRAMEWORKSCOMPILED\PROJECT\VS\\..\..\..\..\\LIBS\OPENFRAMEWORKS\SOUND /IC:\USERS\GLLM\CODE\OF_V0.10.0_VS2017_RELEASE\LIBS\OPENFRAMEWORKSCOMPILED\PROJECT\VS\\..\..\..\..\\LIBS\OPENFRAMEWORKS\UTILS /IC:\USERS\GLLM\CODE\OF_V0.10.0_VS2017_RELEASE\LIBS\OPENFRAMEWORKSCOMPILED\PROJECT\VS\\..\..\..\..\\LIBS\OPENFRAMEWORKS\COMMUNICATION /IC:\USERS\GLLM\CODE\OF_V0.10.0_VS2017_RELEASE\LIBS\OPENFRAMEWORKSCOMPILED\PROJECT\VS\\..\..\..\..\\LIBS\OPENFRAMEWORKS\VIDEO /IC:\USERS\GLLM\CODE\OF_V0.10.0_VS2017_RELEASE\LIBS\OPENFRAMEWORKSCOMPILED\PROJECT\VS\\..\..\..\..\\LIBS\OPENFRAMEWORKS\TYPES /IC:\USERS\GLLM\CODE\OF_V0.10.0_VS2017_RELEASE\LIBS\OPENFRAMEWORKSCOMPILED\PROJECT\VS\\..\..\..\..\\LIBS\OPENFRAMEWORKS\MATH /IC:\USERS\GLLM\CODE\OF_V0.10.0_VS2017_RELEASE\LIBS\OPENFRAMEWORKSCOMPILED\PROJECT\VS\\..\..\..\..\\LIBS\OPENFRAMEWORKS\3D /IC:\USERS\GLLM\CODE\OF_V0.10.0_VS2017_RELEASE\LIBS\OPENFRAMEWORKSCOMPILED\PROJECT\VS\\..\..\..\..\\LIBS\OPENFRAMEWORKS\GL /IC:\USERS\GLLM\CODE\OF_V0.10.0_VS2017_RELEASE\LIBS\OPENFRAMEWORKSCOMPILED\PROJECT\VS\\..\..\..\..\\LIBS\OPENFRAMEWORKS\EVENTS /IC:\USERS\GLLM\CODE\OF_V0.10.0_VS2017_RELEASE\LIBS\OPENFRAMEWORKSCOMPILED\PROJECT\VS\\..\..\..\..\\LIBS\GLM\INCLUDE /IC:\USERS\GLLM\CODE\OF_V0.10.0_VS2017_RELEASE\LIBS\OPENFRAMEWORKSCOMPILED\PROJECT\VS\\..\..\..\..\\LIBS\RTAUDIO\INCLUDE /IC:\USERS\GLLM\CODE\OF_V0.10.0_VS2017_RELEASE\LIBS\OPENFRAMEWORKSCOMPILED\PROJECT\VS\\..\..\..\..\\LIBS\QUICKTIME\INCLUDE /IC:\USERS\GLLM\CODE\OF_V0.10.0_VS2017_RELEASE\LIBS\OPENFRAMEWORKSCOMPILED\PROJECT\VS\\..\..\..\..\\LIBS\FREETYPE\INCLUDE /IC:\USERS\GLLM\CODE\OF_V0.10.0_VS2017_RELEASE\LIBS\OPENFRAMEWORKSCOMPILED\PROJECT\VS\\..\..\..\..\\LIBS\FREETYPE\INCLUDE\FREETYPE2 /IC:\USERS\GLLM\CODE\OF_V0.10.0_VS2017_RELEASE\LIBS\OPENFRAMEWORKSCOMPILED\PROJECT\VS\\..\..\..\..\\LIBS\FREEIMAGE\INCLUDE /IC:\USERS\GLLM\CODE\OF_V0.10.0_VS2017_RELEASE\LIBS\OPENFRAMEWORKSCOMPILED\PROJECT\VS\\..\..\..\..\\LIBS\FMODEX\INCLUDE /IC:\USERS\GLLM\CODE\OF_V0.10.0_VS2017_RELEASE\LIBS\OPENFRAMEWORKSCOMPILED\PROJECT\VS\\..\..\..\..\\LIBS\VIDEOINPUT\INCLUDE /IC:\USERS\GLLM\CODE\OF_V0.10.0_VS2017_RELEASE\LIBS\OPENFRAMEWORKSCOMPILED\PROJECT\VS\\..\..\..\..\\LIBS\GLEW\INCLUDE\ /IC:\USERS\GLLM\CODE\OF_V0.10.0_VS2017_RELEASE\LIBS\OPENFRAMEWORKSCOMPILED\PROJECT\VS\\..\..\..\..\\LIBS\GLU\INCLUDE /IC:\USERS\GLLM\CODE\OF_V0.10.0_VS2017_RELEASE\LIBS\OPENFRAMEWORKSCOMPILED\PROJECT\VS\\..\..\..\..\\LIBS\TESS2\INCLUDE /IC:\USERS\GLLM\CODE\OF_V0.10.0_VS2017_RELEASE\LIBS\OPENFRAMEWORKSCOMPILED\PROJECT\VS\\..\..\..\..\\LIBS\CAIRO\INCLUDE\CAIRO /IC:\USERS\GLLM\CODE\OF_V0.10.0_VS2017_RELEASE\LIBS\OPENFRAMEWORKSCOMPILED\PROJECT\VS\\..\..\..\..\\LIBS\GLFW\INCLUDE /IC:\USERS\GLLM\CODE\OF_V0.10.0_VS2017_RELEASE\LIBS\OPENFRAMEWORKSCOMPILED\PROJECT\VS\\..\..\..\..\\LIBS\OPENSSL\INCLUDE /IC:\USERS\GLLM\CODE\OF_V0.10.0_VS2017_RELEASE\LIBS\OPENFRAMEWORKSCOMPILED\PROJECT\VS\\..\..\..\..\\LIBS\UTF8\INCLUDE /IC:\USERS\GLLM\CODE\OF_V0.10.0_VS2017_RELEASE\LIBS\OPENFRAMEWORKSCOMPILED\PROJECT\VS\\..\..\..\..\\LIBS\BOOST\INCLUDE /IC:\USERS\GLLM\CODE\OF_V0.10.0_VS2017_RELEASE\LIBS\OPENFRAMEWORKSCOMPILED\PROJECT\VS\\..\..\..\..\\LIBS\JSON\INCLUDE /IC:\USERS\GLLM\CODE\OF_V0.10.0_VS2017_RELEASE\LIBS\OPENFRAMEWORKSCOMPILED\PROJECT\VS\\..\..\..\..\\LIBS\CURL\INCLUDE /IC:\USERS\GLLM\CODE\OF_V0.10.0_VS2017_RELEASE\LIBS\OPENFRAMEWORKSCOMPILED\PROJECT\VS\\..\..\..\..\\LIBS\URIPARSER\INCLUDE /IC:\USERS\GLLM\CODE\OF_V0.10.0_VS2017_RELEASE\LIBS\OPENFRAMEWORKSCOMPILED\PROJECT\VS\\..\..\..\..\\LIBS\PUGIXML\INCLUDE /IC:\USERS\GLLM\CODE\OF_V0.10.0_VS2017_RELEASE\LIBS\OPENFRAMEWORKSCOMPILED\PROJECT\VS\\..\..\..\..\\ADDONS /I..\..\..\ADDONS\OFXGUI\SRC /Zi /nologo /W3 /WX- /diagnostics:classic /Od /D WIN32 /D _DEBUG /D _CONSOLE /D POCO_STATIC /D CAIRO_WIN32_STATIC_BUILD /D DISABLE_SOME_FLOATING_POINT /D CURL_STATICLIB /D _UNICODE /D UNICODE /Gm- /EHsc /RTC1 /MDd /GS /fp:precise /Zc:wchar_t /Zc:forScope /Zc:inline /Fo"OBJ\DEBUG\/SRC\/" /Fd"OBJ\DEBUG\VC141.PDB" /Gd /TP /FC C:\USERS\GLLM\CODE\OF_V0.10.0_VS2017_RELEASE\APPS\MYAPPS\SQUARETRACKING\SRC\MAIN.CPP
^C:\USERS\GLLM\CODE\OF_V0.10.0_VS2017_RELEASE\APPS\MYAPPS\SQUARETRACKING\SRC\OFAPP.CPP
/c /IC:\USERS\GLLM\CODE\OF_V0.10.0_VS2017_RELEASE\LIBS\OPENFRAMEWORKSCOMPILED\PROJECT\VS\\..\..\..\..\\LIBS\OPENFRAMEWORKS /IC:\USERS\GLLM\CODE\OF_V0.10.0_VS2017_RELEASE\LIBS\OPENFRAMEWORKSCOMPILED\PROJECT\VS\\..\..\..\..\\LIBS\OPENFRAMEWORKS\GRAPHICS /IC:\USERS\GLLM\CODE\OF_V0.10.0_VS2017_RELEASE\LIBS\OPENFRAMEWORKSCOMPILED\PROJECT\VS\\..\..\..\..\\LIBS\OPENFRAMEWORKS\APP /IC:\USERS\GLLM\CODE\OF_V0.10.0_VS2017_RELEASE\LIBS\OPENFRAMEWORKSCOMPILED\PROJECT\VS\\..\..\..\..\\LIBS\OPENFRAMEWORKS\SOUND /IC:\USERS\GLLM\CODE\OF_V0.10.0_VS2017_RELEASE\LIBS\OPENFRAMEWORKSCOMPILED\PROJECT\VS\\..\..\..\..\\LIBS\OPENFRAMEWORKS\UTILS /IC:\USERS\GLLM\CODE\OF_V0.10.0_VS2017_RELEASE\LIBS\OPENFRAMEWORKSCOMPILED\PROJECT\VS\\..\..\..\..\\LIBS\OPENFRAMEWORKS\COMMUNICATION /IC:\USERS\GLLM\CODE\OF_V0.10.0_VS2017_RELEASE\LIBS\OPENFRAMEWORKSCOMPILED\PROJECT\VS\\..\..\..\..\\LIBS\OPENFRAMEWORKS\VIDEO /IC:\USERS\GLLM\CODE\OF_V0.10.0_VS2017_RELEASE\LIBS\OPENFRAMEWORKSCOMPILED\PROJECT\VS\\..\..\..\..\\LIBS\OPENFRAMEWORKS\TYPES /IC:\USERS\GLLM\CODE\OF_V0.10.0_VS2017_RELEASE\LIBS\OPENFRAMEWORKSCOMPILED\PROJECT\VS\\..\..\..\..\\LIBS\OPENFRAMEWORKS\MATH /IC:\USERS\GLLM\CODE\OF_V0.10.0_VS2017_RELEASE\LIBS\OPENFRAMEWORKSCOMPILED\PROJECT\VS\\..\..\..\..\\LIBS\OPENFRAMEWORKS\3D /IC:\USERS\GLLM\CODE\OF_V0.10.0_VS2017_RELEASE\LIBS\OPENFRAMEWORKSCOMPILED\PROJECT\VS\\..\..\..\..\\LIBS\OPENFRAMEWORKS\GL /IC:\USERS\GLLM\CODE\OF_V0.10.0_VS2017_RELEASE\LIBS\OPENFRAMEWORKSCOMPILED\PROJECT\VS\\..\..\..\..\\LIBS\OPENFRAMEWORKS\EVENTS /IC:\USERS\GLLM\CODE\OF_V0.10.0_VS2017_RELEASE\LIBS\OPENFRAMEWORKSCOMPILED\PROJECT\VS\\..\..\..\..\\LIBS\GLM\INCLUDE /IC:\USERS\GLLM\CODE\OF_V0.10.0_VS2017_RELEASE\LIBS\OPENFRAMEWORKSCOMPILED\PROJECT\VS\\..\..\..\..\\LIBS\RTAUDIO\INCLUDE /IC:\USERS\GLLM\CODE\OF_V0.10.0_VS2017_RELEASE\LIBS\OPENFRAMEWORKSCOMPILED\PROJECT\VS\\..\..\..\..\\LIBS\QUICKTIME\INCLUDE /IC:\USERS\GLLM\CODE\OF_V0.10.0_VS2017_RELEASE\LIBS\OPENFRAMEWORKSCOMPILED\PROJECT\VS\\..\..\..\..\\LIBS\FREETYPE\INCLUDE /IC:\USERS\GLLM\CODE\OF_V0.10.0_VS2017_RELEASE\LIBS\OPENFRAMEWORKSCOMPILED\PROJECT\VS\\..\..\..\..\\LIBS\FREETYPE\INCLUDE\FREETYPE2 /IC:\USERS\GLLM\CODE\OF_V0.10.0_VS2017_RELEASE\LIBS\OPENFRAMEWORKSCOMPILED\PROJECT\VS\\..\..\..\..\\LIBS\FREEIMAGE\INCLUDE /IC:\USERS\GLLM\CODE\OF_V0.10.0_VS2017_RELEASE\LIBS\OPENFRAMEWORKSCOMPILED\PROJECT\VS\\..\..\..\..\\LIBS\FMODEX\INCLUDE /IC:\USERS\GLLM\CODE\OF_V0.10.0_VS2017_RELEASE\LIBS\OPENFRAMEWORKSCOMPILED\PROJECT\VS\\..\..\..\..\\LIBS\VIDEOINPUT\INCLUDE /IC:\USERS\GLLM\CODE\OF_V0.10.0_VS2017_RELEASE\LIBS\OPENFRAMEWORKSCOMPILED\PROJECT\VS\\..\..\..\..\\LIBS\GLEW\INCLUDE\ /IC:\USERS\GLLM\CODE\OF_V0.10.0_VS2017_RELEASE\LIBS\OPENFRAMEWORKSCOMPILED\PROJECT\VS\\..\..\..\..\\LIBS\GLU\INCLUDE /IC:\USERS\GLLM\CODE\OF_V0.10.0_VS2017_RELEASE\LIBS\OPENFRAMEWORKSCOMPILED\PROJECT\VS\\..\..\..\..\\LIBS\TESS2\INCLUDE /IC:\USERS\GLLM\CODE\OF_V0.10.0_VS2017_RELEASE\LIBS\OPENFRAMEWORKSCOMPILED\PROJECT\VS\\..\..\..\..\\LIBS\CAIRO\INCLUDE\CAIRO /IC:\USERS\GLLM\CODE\OF_V0.10.0_VS2017_RELEASE\LIBS\OPENFRAMEWORKSCOMPILED\PROJECT\VS\\..\..\..\..\\LIBS\GLFW\INCLUDE /IC:\USERS\GLLM\CODE\OF_V0.10.0_VS2017_RELEASE\LIBS\OPENFRAMEWORKSCOMPILED\PROJECT\VS\\..\..\..\..\\LIBS\OPENSSL\INCLUDE /IC:\USERS\GLLM\CODE\OF_V0.10.0_VS2017_RELEASE\LIBS\OPENFRAMEWORKSCOMPILED\PROJECT\VS\\..\..\..\..\\LIBS\UTF8\INCLUDE /IC:\USERS\GLLM\CODE\OF_V0.10.0_VS2017_RELEASE\LIBS\OPENFRAMEWORKSCOMPILED\PROJECT\VS\\..\..\..\..\\LIBS\BOOST\INCLUDE /IC:\USERS\GLLM\CODE\OF_V0.10.0_VS2017_RELEASE\LIBS\OPENFRAMEWORKSCOMPILED\PROJECT\VS\\..\..\..\..\\LIBS\JSON\INCLUDE /IC:\USERS\GLLM\CODE\OF_V0.10.0_VS2017_RELEASE\LIBS\OPENFRAMEWORKSCOMPILED\PROJECT\VS\\..\..\..\..\\LIBS\CURL\INCLUDE /IC:\USERS\GLLM\CODE\OF_V0.10.0_VS2017_RELEASE\LIBS\OPENFRAMEWORKSCOMPILED\PROJECT\VS\\..\..\..\..\\LIBS\URIPARSER\INCLUDE /IC:\USERS\GLLM\CODE\OF_V0.10.0_VS2017_RELEASE\LIBS\OPENFRAMEWORKSCOMPILED\PROJECT\VS\\..\..\..\..\\LIBS\PUGIXML\INCLUDE /IC:\USERS\GLLM\CODE\OF_V0.10.0_VS2017_RELEASE\LIBS\OPENFRAMEWORKSCOMPILED\PROJECT\VS\\..\..\..\..\\ADDONS /I..\..\..\ADDONS\OFXGUI\SRC /Zi /nologo /W3 /WX- /diagnostics:classic /Od /D WIN32 /D _DEBUG /D _CONSOLE /D POCO_STATIC /D CAIRO_WIN32_STATIC_BUILD /D DISABLE_SOME_FLOATING_POINT /D CURL_STATICLIB /D _UNICODE /D UNICODE /Gm- /EHsc /RTC1 /MDd /GS /fp:precise /Zc:wchar_t /Zc:forScope /Zc:inline /Fo"OBJ\DEBUG\/SRC\/" /Fd"OBJ\DEBUG\VC141.PDB" /Gd /TP /FC C:\USERS\GLLM\CODE\OF_V0.10.0_VS2017_RELEASE\APPS\MYAPPS\SQUARETRACKING\SRC\OFAPP.CPP
^C:\USERS\GLLM\CODE\OF_V0.10.0_VS2017_RELEASE\ADDONS\OFXGUI\SRC\OFXBASEGUI.CPP
/c /IC:\USERS\GLLM\CODE\OF_V0.10.0_VS2017_RELEASE\LIBS\OPENFRAMEWORKSCOMPILED\PROJECT\VS\\..\..\..\..\\LIBS\OPENFRAMEWORKS /IC:\USERS\GLLM\CODE\OF_V0.10.0_VS2017_RELEASE\LIBS\OPENFRAMEWORKSCOMPILED\PROJECT\VS\\..\..\..\..\\LIBS\OPENFRAMEWORKS\GRAPHICS /IC:\USERS\GLLM\CODE\OF_V0.10.0_VS2017_RELEASE\LIBS\OPENFRAMEWORKSCOMPILED\PROJECT\VS\\..\..\..\..\\LIBS\OPENFRAMEWORKS\APP /IC:\USERS\GLLM\CODE\OF_V0.10.0_VS2017_RELEASE\LIBS\OPENFRAMEWORKSCOMPILED\PROJECT\VS\\..\..\..\..\\LIBS\OPENFRAMEWORKS\SOUND /IC:\USERS\GLLM\CODE\OF_V0.10.0_VS2017_RELEASE\LIBS\OPENFRAMEWORKSCOMPILED\PROJECT\VS\\..\..\..\..\\LIBS\OPENFRAMEWORKS\UTILS /IC:\USERS\GLLM\CODE\OF_V0.10.0_VS2017_RELEASE\LIBS\OPENFRAMEWORKSCOMPILED\PROJECT\VS\\..\..\..\..\\LIBS\OPENFRAMEWORKS\COMMUNICATION /IC:\USERS\GLLM\CODE\OF_V0.10.0_VS2017_RELEASE\LIBS\OPENFRAMEWORKSCOMPILED\PROJECT\VS\\..\..\..\..\\LIBS\OPENFRAMEWORKS\VIDEO /IC:\USERS\GLLM\CODE\OF_V0.10.0_VS2017_RELEASE\LIBS\OPENFRAMEWORKSCOMPILED\PROJECT\VS\\..\..\..\..\\LIBS\OPENFRAMEWORKS\TYPES /IC:\USERS\GLLM\CODE\OF_V0.10.0_VS2017_RELEASE\LIBS\OPENFRAMEWORKSCOMPILED\PROJECT\VS\\..\..\..\..\\LIBS\OPENFRAMEWORKS\MATH /IC:\USERS\GLLM\CODE\OF_V0.10.0_VS2017_RELEASE\LIBS\OPENFRAMEWORKSCOMPILED\PROJECT\VS\\..\..\..\..\\LIBS\OPENFRAMEWORKS\3D /IC:\USERS\GLLM\CODE\OF_V0.10.0_VS2017_RELEASE\LIBS\OPENFRAMEWORKSCOMPILED\PROJECT\VS\\..\..\..\..\\LIBS\OPENFRAMEWORKS\GL /IC:\USERS\GLLM\CODE\OF_V0.10.0_VS2017_RELEASE\LIBS\OPENFRAMEWORKSCOMPILED\PROJECT\VS\\..\..\..\..\\LIBS\OPENFRAMEWORKS\EVENTS /IC:\USERS\GLLM\CODE\OF_V0.10.0_VS2017_RELEASE\LIBS\OPENFRAMEWORKSCOMPILED\PROJECT\VS\\..\..\..\..\\LIBS\GLM\INCLUDE /IC:\USERS\GLLM\CODE\OF_V0.10.0_VS2017_RELEASE\LIBS\OPENFRAMEWORKSCOMPILED\PROJECT\VS\\..\..\..\..\\LIBS\RTAUDIO\INCLUDE /IC:\USERS\GLLM\CODE\OF_V0.10.0_VS2017_RELEASE\LIBS\OPENFRAMEWORKSCOMPILED\PROJECT\VS\\..\..\..\..\\LIBS\QUICKTIME\INCLUDE /IC:\USERS\GLLM\CODE\OF_V0.10.0_VS2017_RELEASE\LIBS\OPENFRAMEWORKSCOMPILED\PROJECT\VS\\..\..\..\..\\LIBS\FREETYPE\INCLUDE /IC:\USERS\GLLM\CODE\OF_V0.10.0_VS2017_RELEASE\LIBS\OPENFRAMEWORKSCOMPILED\PROJECT\VS\\..\..\..\..\\LIBS\FREETYPE\INCLUDE\FREETYPE2 /IC:\USERS\GLLM\CODE\OF_V0.10.0_VS2017_RELEASE\LIBS\OPENFRAMEWORKSCOMPILED\PROJECT\VS\\..\..\..\..\\LIBS\FREEIMAGE\INCLUDE /IC:\USERS\GLLM\CODE\OF_V0.10.0_VS2017_RELEASE\LIBS\OPENFRAMEWORKSCOMPILED\PROJECT\VS\\..\..\..\..\\LIBS\FMODEX\INCLUDE /IC:\USERS\GLLM\CODE\OF_V0.10.0_VS2017_RELEASE\LIBS\OPENFRAMEWORKSCOMPILED\PROJECT\VS\\..\..\..\..\\LIBS\VIDEOINPUT\INCLUDE /IC:\USERS\GLLM\CODE\OF_V0.10.0_VS2017_RELEASE\LIBS\OPENFRAMEWORKSCOMPILED\PROJECT\VS\\..\..\..\..\\LIBS\GLEW\INCLUDE\ /IC:\USERS\GLLM\CODE\OF_V0.10.0_VS2017_RELEASE\LIBS\OPENFRAMEWORKSCOMPILED\PROJECT\VS\\..\..\..\..\\LIBS\GLU\INCLUDE /IC:\USERS\GLLM\CODE\OF_V0.10.0_VS2017_RELEASE\LIBS\OPENFRAMEWORKSCOMPILED\PROJECT\VS\\..\..\..\..\\LIBS\TESS2\INCLUDE /IC:\USERS\GLLM\CODE\OF_V0.10.0_VS2017_RELEASE\LIBS\OPENFRAMEWORKSCOMPILED\PROJECT\VS\\..\..\..\..\\LIBS\CAIRO\INCLUDE\CAIRO /IC:\USERS\GLLM\CODE\OF_V0.10.0_VS2017_RELEASE\LIBS\OPENFRAMEWORKSCOMPILED\PROJECT\VS\\..\..\..\..\\LIBS\GLFW\INCLUDE /IC:\USERS\GLLM\CODE\OF_V0.10.0_VS2017_RELEASE\LIBS\OPENFRAMEWORKSCOMPILED\PROJECT\VS\\..\..\..\..\\LIBS\OPENSSL\INCLUDE /IC:\USERS\GLLM\CODE\OF_V0.10.0_VS2017_RELEASE\LIBS\OPENFRAMEWORKSCOMPILED\PROJECT\VS\\..\..\..\..\\LIBS\UTF8\INCLUDE /IC:\USERS\GLLM\CODE\OF_V0.10.0_VS2017_RELEASE\LIBS\OPENFRAMEWORKSCOMPILED\PROJECT\VS\\..\..\..\..\\LIBS\BOOST\INCLUDE /IC:\USERS\GLLM\CODE\OF_V0.10.0_VS2017_RELEASE\LIBS\OPENFRAMEWORKSCOMPILED\PROJECT\VS\\..\..\..\..\\LIBS\JSON\INCLUDE /IC:\USERS\GLLM\CODE\OF_V0.10.0_VS2017_RELEASE\LIBS\OPENFRAMEWORKSCOMPILED\PROJECT\VS\\..\..\..\..\\LIBS\CURL\INCLUDE /IC:\USERS\GLLM\CODE\OF_V0.10.0_VS2017_RELEASE\LIBS\OPENFRAMEWORKSCOMPILED\PROJECT\VS\\..\..\..\..\\LIBS\URIPARSER\INCLUDE /IC:\USERS\GLLM\CODE\OF_V0.10.0_VS2017_RELEASE\LIBS\OPENFRAMEWORKSCOMPILED\PROJECT\VS\\..\..\..\..\\LIBS\PUGIXML\INCLUDE /IC:\USERS\GLLM\CODE\OF_V0.10.0_VS2017_RELEASE\LIBS\OPENFRAMEWORKSCOMPILED\PROJECT\VS\\..\..\..\..\\ADDONS /I..\..\..\ADDONS\OFXGUI\SRC /Zi /nologo /W3 /WX- /diagnostics:classic /Od /D WIN32 /D _DEBUG /D _CONSOLE /D POCO_STATIC /D CAIRO_WIN32_STATIC_BUILD /D DISABLE_SOME_FLOATING_POINT /D CURL_STATICLIB /D _UNICODE /D UNICODE /Gm- /EHsc /RTC1 /MDd /GS /fp:precise /Zc:wchar_t /Zc:forScope /Zc:inline /Fo"OBJ\DEBUG\/..\..\..\ADDONS\OFXGUI\SRC\/" /Fd"OBJ\DEBUG\VC141.PDB" /Gd /TP /FC C:\USERS\GLLM\CODE\OF_V0.10.0_VS2017_RELEASE\ADDONS\OFXGUI\SRC\OFXBASEGUI.CPP
^C:\USERS\GLLM\CODE\OF_V0.10.0_VS2017_RELEASE\ADDONS\OFXGUI\SRC\OFXBUTTON.CPP
/c /IC:\USERS\GLLM\CODE\OF_V0.10.0_VS2017_RELEASE\LIBS\OPENFRAMEWORKSCOMPILED\PROJECT\VS\\..\..\..\..\\LIBS\OPENFRAMEWORKS /IC:\USERS\GLLM\CODE\OF_V0.10.0_VS2017_RELEASE\LIBS\OPENFRAMEWORKSCOMPILED\PROJECT\VS\\..\..\..\..\\LIBS\OPENFRAMEWORKS\GRAPHICS /IC:\USERS\GLLM\CODE\OF_V0.10.0_VS2017_RELEASE\LIBS\OPENFRAMEWORKSCOMPILED\PROJECT\VS\\..\..\..\..\\LIBS\OPENFRAMEWORKS\APP /IC:\USERS\GLLM\CODE\OF_V0.10.0_VS2017_RELEASE\LIBS\OPENFRAMEWORKSCOMPILED\PROJECT\VS\\..\..\..\..\\LIBS\OPENFRAMEWORKS\SOUND /IC:\USERS\GLLM\CODE\OF_V0.10.0_VS2017_RELEASE\LIBS\OPENFRAMEWORKSCOMPILED\PROJECT\VS\\..\..\..\..\\LIBS\OPENFRAMEWORKS\UTILS /IC:\USERS\GLLM\CODE\OF_V0.10.0_VS2017_RELEASE\LIBS\OPENFRAMEWORKSCOMPILED\PROJECT\VS\\..\..\..\..\\LIBS\OPENFRAMEWORKS\COMMUNICATION /IC:\USERS\GLLM\CODE\OF_V0.10.0_VS2017_RELEASE\LIBS\OPENFRAMEWORKSCOMPILED\PROJECT\VS\\..\..\..\..\\LIBS\OPENFRAMEWORKS\VIDEO /IC:\USERS\GLLM\CODE\OF_V0.10.0_VS2017_RELEASE\LIBS\OPENFRAMEWORKSCOMPILED\PROJECT\VS\\..\..\..\..\\LIBS\OPENFRAMEWORKS\TYPES /IC:\USERS\GLLM\CODE\OF_V0.10.0_VS2017_RELEASE\LIBS\OPENFRAMEWORKSCOMPILED\PROJECT\VS\\..\..\..\..\\LIBS\OPENFRAMEWORKS\MATH /IC:\USERS\GLLM\CODE\OF_V0.10.0_VS2017_RELEASE\LIBS\OPENFRAMEWORKSCOMPILED\PROJECT\VS\\..\..\..\..\\LIBS\OPENFRAMEWORKS\3D /IC:\USERS\GLLM\CODE\OF_V0.10.0_VS2017_RELEASE\LIBS\OPENFRAMEWORKSCOMPILED\PROJECT\VS\\..\..\..\..\\LIBS\OPENFRAMEWORKS\GL /IC:\USERS\GLLM\CODE\OF_V0.10.0_VS2017_RELEASE\LIBS\OPENFRAMEWORKSCOMPILED\PROJECT\VS\\..\..\..\..\\LIBS\OPENFRAMEWORKS\EVENTS /IC:\USERS\GLLM\CODE\OF_V0.10.0_VS2017_RELEASE\LIBS\OPENFRAMEWORKSCOMPILED\PROJECT\VS\\..\..\..\..\\LIBS\GLM\INCLUDE /IC:\USERS\GLLM\CODE\OF_V0.10.0_VS2017_RELEASE\LIBS\OPENFRAMEWORKSCOMPILED\PROJECT\VS\\..\..\..\..\\LIBS\RTAUDIO\INCLUDE /IC:\USERS\GLLM\CODE\OF_V0.10.0_VS2017_RELEASE\LIBS\OPENFRAMEWORKSCOMPILED\PROJECT\VS\\..\..\..\..\\LIBS\QUICKTIME\INCLUDE /IC:\USERS\GLLM\CODE\OF_V0.10.0_VS2017_RELEASE\LIBS\OPENFRAMEWORKSCOMPILED\PROJECT\VS\\..\..\..\..\\LIBS\FREETYPE\INCLUDE /IC:\USERS\GLLM\CODE\OF_V0.10.0_VS2017_RELEASE\LIBS\OPENFRAMEWORKSCOMPILED\PROJECT\VS\\..\..\..\..\\LIBS\FREETYPE\INCLUDE\FREETYPE2 /IC:\USERS\GLLM\CODE\OF_V0.10.0_VS2017_RELEASE\LIBS\OPENFRAMEWORKSCOMPILED\PROJECT\VS\\..\..\..\..\\LIBS\FREEIMAGE\INCLUDE /IC:\USERS\GLLM\CODE\OF_V0.10.0_VS2017_RELEASE\LIBS\OPENFRAMEWORKSCOMPILED\PROJECT\VS\\..\..\..\..\\LIBS\FMODEX\INCLUDE /IC:\USERS\GLLM\CODE\OF_V0.10.0_VS2017_RELEASE\LIBS\OPENFRAMEWORKSCOMPILED\PROJECT\VS\\..\..\..\..\\LIBS\VIDEOINPUT\INCLUDE /IC:\USERS\GLLM\CODE\OF_V0.10.0_VS2017_RELEASE\LIBS\OPENFRAMEWORKSCOMPILED\PROJECT\VS\\..\..\..\..\\LIBS\GLEW\INCLUDE\ /IC:\USERS\GLLM\CODE\OF_V0.10.0_VS2017_RELEASE\LIBS\OPENFRAMEWORKSCOMPILED\PROJECT\VS\\..\..\..\..\\LIBS\GLU\INCLUDE /IC:\USERS\GLLM\CODE\OF_V0.10.0_VS2017_RELEASE\LIBS\OPENFRAMEWORKSCOMPILED\PROJECT\VS\\..\..\..\..\\LIBS\TESS2\INCLUDE /IC:\USERS\GLLM\CODE\OF_V0.10.0_VS2017_RELEASE\LIBS\OPENFRAMEWORKSCOMPILED\PROJECT\VS\\..\..\..\..\\LIBS\CAIRO\INCLUDE\CAIRO /IC:\USERS\GLLM\CODE\OF_V0.10.0_VS2017_RELEASE\LIBS\OPENFRAMEWORKSCOMPILED\PROJECT\VS\\..\..\..\..\\LIBS\GLFW\INCLUDE /IC:\USERS\GLLM\CODE\OF_V0.10.0_VS2017_RELEASE\LIBS\OPENFRAMEWORKSCOMPILED\PROJECT\VS\\..\..\..\..\\LIBS\OPENSSL\INCLUDE /IC:\USERS\GLLM\CODE\OF_V0.10.0_VS2017_RELEASE\LIBS\OPENFRAMEWORKSCOMPILED\PROJECT\VS\\..\..\..\..\\LIBS\UTF8\INCLUDE /IC:\USERS\GLLM\CODE\OF_V0.10.0_VS2017_RELEASE\LIBS\OPENFRAMEWORKSCOMPILED\PROJECT\VS\\..\..\..\..\\LIBS\BOOST\INCLUDE /IC:\USERS\GLLM\CODE\OF_V0.10.0_VS2017_RELEASE\LIBS\OPENFRAMEWORKSCOMPILED\PROJECT\VS\\..\..\..\..\\LIBS\JSON\INCLUDE /IC:\USERS\GLLM\CODE\OF_V0.10.0_VS2017_RELEASE\LIBS\OPENFRAMEWORKSCOMPILED\PROJECT\VS\\..\..\..\..\\LIBS\CURL\INCLUDE /IC:\USERS\GLLM\CODE\OF_V0.10.0_VS2017_RELEASE\LIBS\OPENFRAMEWORKSCOMPILED\PROJECT\VS\\..\..\..\..\\LIBS\URIPARSER\INCLUDE /IC:\USERS\GLLM\CODE\OF_V0.10.0_VS2017_RELEASE\LIBS\OPENFRAMEWORKSCOMPILED\PROJECT\VS\\..\..\..\..\\LIBS\PUGIXML\INCLUDE /IC:\USERS\GLLM\CODE\OF_V0.10.0_VS2017_RELEASE\LIBS\OPENFRAMEWORKSCOMPILED\PROJECT\VS\\..\..\..\..\\ADDONS /I..\..\..\ADDONS\OFXGUI\SRC /Zi /nologo /W3 /WX- /diagnostics:classic /Od /D WIN32 /D _DEBUG /D _CONSOLE /D POCO_STATIC /D CAIRO_WIN32_STATIC_BUILD /D DISABLE_SOME_FLOATING_POINT /D CURL_STATICLIB /D _UNICODE /D UNICODE /Gm- /EHsc /RTC1 /MDd /GS /fp:precise /Zc:wchar_t /Zc:forScope /Zc:inline /Fo"OBJ\DEBUG\/..\..\..\ADDONS\OFXGUI\SRC\/" /Fd"OBJ\DEBUG\VC141.PDB" /Gd /TP /FC C:\USERS\GLLM\CODE\OF_V0.10.0_VS2017_RELEASE\ADDONS\OFXGUI\SRC\OFXBUTTON.CPP
^C:\USERS\GLLM\CODE\OF_V0.10.0_VS2017_RELEASE\ADDONS\OFXGUI\SRC\OFXCOLORPICKER.CPP
/c /IC:\USERS\GLLM\CODE\OF_V0.10.0_VS2017_RELEASE\LIBS\OPENFRAMEWORKSCOMPILED\PROJECT\VS\\..\..\..\..\\LIBS\OPENFRAMEWORKS /IC:\USERS\GLLM\CODE\OF_V0.10.0_VS2017_RELEASE\LIBS\OPENFRAMEWORKSCOMPILED\PROJECT\VS\\..\..\..\..\\LIBS\OPENFRAMEWORKS\GRAPHICS /IC:\USERS\GLLM\CODE\OF_V0.10.0_VS2017_RELEASE\LIBS\OPENFRAMEWORKSCOMPILED\PROJECT\VS\\..\..\..\..\\LIBS\OPENFRAMEWORKS\APP /IC:\USERS\GLLM\CODE\OF_V0.10.0_VS2017_RELEASE\LIBS\OPENFRAMEWORKSCOMPILED\PROJECT\VS\\..\..\..\..\\LIBS\OPENFRAMEWORKS\SOUND /IC:\USERS\GLLM\CODE\OF_V0.10.0_VS2017_RELEASE\LIBS\OPENFRAMEWORKSCOMPILED\PROJECT\VS\\..\..\..\..\\LIBS\OPENFRAMEWORKS\UTILS /IC:\USERS\GLLM\CODE\OF_V0.10.0_VS2017_RELEASE\LIBS\OPENFRAMEWORKSCOMPILED\PROJECT\VS\\..\..\..\..\\LIBS\OPENFRAMEWORKS\COMMUNICATION /IC:\USERS\GLLM\CODE\OF_V0.10.0_VS2017_RELEASE\LIBS\OPENFRAMEWORKSCOMPILED\PROJECT\VS\\..\..\..\..\\LIBS\OPENFRAMEWORKS\VIDEO /IC:\USERS\GLLM\CODE\OF_V0.10.0_VS2017_RELEASE\LIBS\OPENFRAMEWORKSCOMPILED\PROJECT\VS\\..\..\..\..\\LIBS\OPENFRAMEWORKS\TYPES /IC:\USERS\GLLM\CODE\OF_V0.10.0_VS2017_RELEASE\LIBS\OPENFRAMEWORKSCOMPILED\PROJECT\VS\\..\..\..\..\\LIBS\OPENFRAMEWORKS\MATH /IC:\USERS\GLLM\CODE\OF_V0.10.0_VS2017_RELEASE\LIBS\OPENFRAMEWORKSCOMPILED\PROJECT\VS\\..\..\..\..\\LIBS\OPENFRAMEWORKS\3D /IC:\USERS\GLLM\CODE\OF_V0.10.0_VS2017_RELEASE\LIBS\OPENFRAMEWORKSCOMPILED\PROJECT\VS\\..\..\..\..\\LIBS\OPENFRAMEWORKS\GL /IC:\USERS\GLLM\CODE\OF_V0.10.0_VS2017_RELEASE\LIBS\OPENFRAMEWORKSCOMPILED\PROJECT\VS\\..\..\..\..\\LIBS\OPENFRAMEWORKS\EVENTS /IC:\USERS\GLLM\CODE\OF_V0.10.0_VS2017_RELEASE\LIBS\OPENFRAMEWORKSCOMPILED\PROJECT\VS\\..\..\..\..\\LIBS\GLM\INCLUDE /IC:\USERS\GLLM\CODE\OF_V0.10.0_VS2017_RELEASE\LIBS\OPENFRAMEWORKSCOMPILED\PROJECT\VS\\..\..\..\..\\LIBS\RTAUDIO\INCLUDE /IC:\USERS\GLLM\CODE\OF_V0.10.0_VS2017_RELEASE\LIBS\OPENFRAMEWORKSCOMPILED\PROJECT\VS\\..\..\..\..\\LIBS\QUICKTIME\INCLUDE /IC:\USERS\GLLM\CODE\OF_V0.10.0_VS2017_RELEASE\LIBS\OPENFRAMEWORKSCOMPILED\PROJECT\VS\\..\..\..\..\\LIBS\FREETYPE\INCLUDE /IC:\USERS\GLLM\CODE\OF_V0.10.0_VS2017_RELEASE\LIBS\OPENFRAMEWORKSCOMPILED\PROJECT\VS\\..\..\..\..\\LIBS\FREETYPE\INCLUDE\FREETYPE2 /IC:\USERS\GLLM\CODE\OF_V0.10.0_VS2017_RELEASE\LIBS\OPENFRAMEWORKSCOMPILED\PROJECT\VS\\..\..\..\..\\LIBS\FREEIMAGE\INCLUDE /IC:\USERS\GLLM\CODE\OF_V0.10.0_VS2017_RELEASE\LIBS\OPENFRAMEWORKSCOMPILED\PROJECT\VS\\..\..\..\..\\LIBS\FMODEX\INCLUDE /IC:\USERS\GLLM\CODE\OF_V0.10.0_VS2017_RELEASE\LIBS\OPENFRAMEWORKSCOMPILED\PROJECT\VS\\..\..\..\..\\LIBS\VIDEOINPUT\INCLUDE /IC:\USERS\GLLM\CODE\OF_V0.10.0_VS2017_RELEASE\LIBS\OPENFRAMEWORKSCOMPILED\PROJECT\VS\\..\..\..\..\\LIBS\GLEW\INCLUDE\ /IC:\USERS\GLLM\CODE\OF_V0.10.0_VS2017_RELEASE\LIBS\OPENFRAMEWORKSCOMPILED\PROJECT\VS\\..\..\..\..\\LIBS\GLU\INCLUDE /IC:\USERS\GLLM\CODE\OF_V0.10.0_VS2017_RELEASE\LIBS\OPENFRAMEWORKSCOMPILED\PROJECT\VS\\..\..\..\..\\LIBS\TESS2\INCLUDE /IC:\USERS\GLLM\CODE\OF_V0.10.0_VS2017_RELEASE\LIBS\OPENFRAMEWORKSCOMPILED\PROJECT\VS\\..\..\..\..\\LIBS\CAIRO\INCLUDE\CAIRO /IC:\USERS\GLLM\CODE\OF_V0.10.0_VS2017_RELEASE\LIBS\OPENFRAMEWORKSCOMPILED\PROJECT\VS\\..\..\..\..\\LIBS\GLFW\INCLUDE /IC:\USERS\GLLM\CODE\OF_V0.10.0_VS2017_RELEASE\LIBS\OPENFRAMEWORKSCOMPILED\PROJECT\VS\\..\..\..\..\\LIBS\OPENSSL\INCLUDE /IC:\USERS\GLLM\CODE\OF_V0.10.0_VS2017_RELEASE\LIBS\OPENFRAMEWORKSCOMPILED\PROJECT\VS\\..\..\..\..\\LIBS\UTF8\INCLUDE /IC:\USERS\GLLM\CODE\OF_V0.10.0_VS2017_RELEASE\LIBS\OPENFRAMEWORKSCOMPILED\PROJECT\VS\\..\..\..\..\\LIBS\BOOST\INCLUDE /IC:\USERS\GLLM\CODE\OF_V0.10.0_VS2017_RELEASE\LIBS\OPENFRAMEWORKSCOMPILED\PROJECT\VS\\..\..\..\..\\LIBS\JSON\INCLUDE /IC:\USERS\GLLM\CODE\OF_V0.10.0_VS2017_RELEASE\LIBS\OPENFRAMEWORKSCOMPILED\PROJECT\VS\\..\..\..\..\\LIBS\CURL\INCLUDE /IC:\USERS\GLLM\CODE\OF_V0.10.0_VS2017_RELEASE\LIBS\OPENFRAMEWORKSCOMPILED\PROJECT\VS\\..\..\..\..\\LIBS\URIPARSER\INCLUDE /IC:\USERS\GLLM\CODE\OF_V0.10.0_VS2017_RELEASE\LIBS\OPENFRAMEWORKSCOMPILED\PROJECT\VS\\..\..\..\..\\LIBS\PUGIXML\INCLUDE /IC:\USERS\GLLM\CODE\OF_V0.10.0_VS2017_RELEASE\LIBS\OPENFRAMEWORKSCOMPILED\PROJECT\VS\\..\..\..\..\\ADDONS /I..\..\..\ADDONS\OFXGUI\SRC /Zi /nologo /W3 /WX- /diagnostics:classic /Od /D WIN32 /D _DEBUG /D _CONSOLE /D POCO_STATIC /D CAIRO_WIN32_STATIC_BUILD /D DISABLE_SOME_FLOATING_POINT /D CURL_STATICLIB /D _UNICODE /D UNICODE /Gm- /EHsc /RTC1 /MDd /GS /fp:precise /Zc:wchar_t /Zc:forScope /Zc:inline /Fo"OBJ\DEBUG\/..\..\..\ADDONS\OFXGUI\SRC\/" /Fd"OBJ\DEBUG\VC141.PDB" /Gd /TP /FC C:\USERS\GLLM\CODE\OF_V0.10.0_VS2017_RELEASE\ADDONS\OFXGUI\SRC\OFXCOLORPICKER.CPP
^C:\USERS\GLLM\CODE\OF_V0.10.0_VS2017_RELEASE\ADDONS\OFXGUI\SRC\OFXGUIGROUP.CPP
/c /IC:\USERS\GLLM\CODE\OF_V0.10.0_VS2017_RELEASE\LIBS\OPENFRAMEWORKSCOMPILED\PROJECT\VS\\..\..\..\..\\LIBS\OPENFRAMEWORKS /IC:\USERS\GLLM\CODE\OF_V0.10.0_VS2017_RELEASE\LIBS\OPENFRAMEWORKSCOMPILED\PROJECT\VS\\..\..\..\..\\LIBS\OPENFRAMEWORKS\GRAPHICS /IC:\USERS\GLLM\CODE\OF_V0.10.0_VS2017_RELEASE\LIBS\OPENFRAMEWORKSCOMPILED\PROJECT\VS\\..\..\..\..\\LIBS\OPENFRAMEWORKS\APP /IC:\USERS\GLLM\CODE\OF_V0.10.0_VS2017_RELEASE\LIBS\OPENFRAMEWORKSCOMPILED\PROJECT\VS\\..\..\..\..\\LIBS\OPENFRAMEWORKS\SOUND /IC:\USERS\GLLM\CODE\OF_V0.10.0_VS2017_RELEASE\LIBS\OPENFRAMEWORKSCOMPILED\PROJECT\VS\\..\..\..\..\\LIBS\OPENFRAMEWORKS\UTILS /IC:\USERS\GLLM\CODE\OF_V0.10.0_VS2017_RELEASE\LIBS\OPENFRAMEWORKSCOMPILED\PROJECT\VS\\..\..\..\..\\LIBS\OPENFRAMEWORKS\COMMUNICATION /IC:\USERS\GLLM\CODE\OF_V0.10.0_VS2017_RELEASE\LIBS\OPENFRAMEWORKSCOMPILED\PROJECT\VS\\..\..\..\..\\LIBS\OPENFRAMEWORKS\VIDEO /IC:\USERS\GLLM\CODE\OF_V0.10.0_VS2017_RELEASE\LIBS\OPENFRAMEWORKSCOMPILED\PROJECT\VS\\..\..\..\..\\LIBS\OPENFRAMEWORKS\TYPES /IC:\USERS\GLLM\CODE\OF_V0.10.0_VS2017_RELEASE\LIBS\OPENFRAMEWORKSCOMPILED\PROJECT\VS\\..\..\..\..\\LIBS\OPENFRAMEWORKS\MATH /IC:\USERS\GLLM\CODE\OF_V0.10.0_VS2017_RELEASE\LIBS\OPENFRAMEWORKSCOMPILED\PROJECT\VS\\..\..\..\..\\LIBS\OPENFRAMEWORKS\3D /IC:\USERS\GLLM\CODE\OF_V0.10.0_VS2017_RELEASE\LIBS\OPENFRAMEWORKSCOMPILED\PROJECT\VS\\..\..\..\..\\LIBS\OPENFRAMEWORKS\GL /IC:\USERS\GLLM\CODE\OF_V0.10.0_VS2017_RELEASE\LIBS\OPENFRAMEWORKSCOMPILED\PROJECT\VS\\..\..\..\..\\LIBS\OPENFRAMEWORKS\EVENTS /IC:\USERS\GLLM\CODE\OF_V0.10.0_VS2017_RELEASE\LIBS\OPENFRAMEWORKSCOMPILED\PROJECT\VS\\..\..\..\..\\LIBS\GLM\INCLUDE /IC:\USERS\GLLM\CODE\OF_V0.10.0_VS2017_RELEASE\LIBS\OPENFRAMEWORKSCOMPILED\PROJECT\VS\\..\..\..\..\\LIBS\RTAUDIO\INCLUDE /IC:\USERS\GLLM\CODE\OF_V0.10.0_VS2017_RELEASE\LIBS\OPENFRAMEWORKSCOMPILED\PROJECT\VS\\..\..\..\..\\LIBS\QUICKTIME\INCLUDE /IC:\USERS\GLLM\CODE\OF_V0.10.0_VS2017_RELEASE\LIBS\OPENFRAMEWORKSCOMPILED\PROJECT\VS\\..\..\..\..\\LIBS\FREETYPE\INCLUDE /IC:\USERS\GLLM\CODE\OF_V0.10.0_VS2017_RELEASE\LIBS\OPENFRAMEWORKSCOMPILED\PROJECT\VS\\..\..\..\..\\LIBS\FREETYPE\INCLUDE\FREETYPE2 /IC:\USERS\GLLM\CODE\OF_V0.10.0_VS2017_RELEASE\LIBS\OPENFRAMEWORKSCOMPILED\PROJECT\VS\\..\..\..\..\\LIBS\FREEIMAGE\INCLUDE /IC:\USERS\GLLM\CODE\OF_V0.10.0_VS2017_RELEASE\LIBS\OPENFRAMEWORKSCOMPILED\PROJECT\VS\\..\..\..\..\\LIBS\FMODEX\INCLUDE /IC:\USERS\GLLM\CODE\OF_V0.10.0_VS2017_RELEASE\LIBS\OPENFRAMEWORKSCOMPILED\PROJECT\VS\\..\..\..\..\\LIBS\VIDEOINPUT\INCLUDE /IC:\USERS\GLLM\CODE\OF_V0.10.0_VS2017_RELEASE\LIBS\OPENFRAMEWORKSCOMPILED\PROJECT\VS\\..\..\..\..\\LIBS\GLEW\INCLUDE\ /IC:\USERS\GLLM\CODE\OF_V0.10.0_VS2017_RELEASE\LIBS\OPENFRAMEWORKSCOMPILED\PROJECT\VS\\..\..\..\..\\LIBS\GLU\INCLUDE /IC:\USERS\GLLM\CODE\OF_V0.10.0_VS2017_RELEASE\LIBS\OPENFRAMEWORKSCOMPILED\PROJECT\VS\\..\..\..\..\\LIBS\TESS2\INCLUDE /IC:\USERS\GLLM\CODE\OF_V0.10.0_VS2017_RELEASE\LIBS\OPENFRAMEWORKSCOMPILED\PROJECT\VS\\..\..\..\..\\LIBS\CAIRO\INCLUDE\CAIRO /IC:\USERS\GLLM\CODE\OF_V0.10.0_VS2017_RELEASE\LIBS\OPENFRAMEWORKSCOMPILED\PROJECT\VS\\..\..\..\..\\LIBS\GLFW\INCLUDE /IC:\USERS\GLLM\CODE\OF_V0.10.0_VS2017_RELEASE\LIBS\OPENFRAMEWORKSCOMPILED\PROJECT\VS\\..\..\..\..\\LIBS\OPENSSL\INCLUDE /IC:\USERS\GLLM\CODE\OF_V0.10.0_VS2017_RELEASE\LIBS\OPENFRAMEWORKSCOMPILED\PROJECT\VS\\..\..\..\..\\LIBS\UTF8\INCLUDE /IC:\USERS\GLLM\CODE\OF_V0.10.0_VS2017_RELEASE\LIBS\OPENFRAMEWORKSCOMPILED\PROJECT\VS\\..\..\..\..\\LIBS\BOOST\INCLUDE /IC:\USERS\GLLM\CODE\OF_V0.10.0_VS2017_RELEASE\LIBS\OPENFRAMEWORKSCOMPILED\PROJECT\VS\\..\..\..\..\\LIBS\JSON\INCLUDE /IC:\USERS\GLLM\CODE\OF_V0.10.0_VS2017_RELEASE\LIBS\OPENFRAMEWORKSCOMPILED\PROJECT\VS\\..\..\..\..\\LIBS\CURL\INCLUDE /IC:\USERS\GLLM\CODE\OF_V0.10.0_VS2017_RELEASE\LIBS\OPENFRAMEWORKSCOMPILED\PROJECT\VS\\..\..\..\..\\LIBS\URIPARSER\INCLUDE /IC:\USERS\GLLM\CODE\OF_V0.10.0_VS2017_RELEASE\LIBS\OPENFRAMEWORKSCOMPILED\PROJECT\VS\\..\..\..\..\\LIBS\PUGIXML\INCLUDE /IC:\USERS\GLLM\CODE\OF_V0.10.0_VS2017_RELEASE\LIBS\OPENFRAMEWORKSCOMPILED\PROJECT\VS\\..\..\..\..\\ADDONS /I..\..\..\ADDONS\OFXGUI\SRC /Zi /nologo /W3 /WX- /diagnostics:classic /Od /D WIN32 /D _DEBUG /D _CONSOLE /D POCO_STATIC /D CAIRO_WIN32_STATIC_BUILD /D DISABLE_SOME_FLOATING_POINT /D CURL_STATICLIB /D _UNICODE /D UNICODE /Gm- /EHsc /RTC1 /MDd /GS /fp:precise /Zc:wchar_t /Zc:forScope /Zc:inline /Fo"OBJ\DEBUG\/..\..\..\ADDONS\OFXGUI\SRC\/" /Fd"OBJ\DEBUG\VC141.PDB" /Gd /TP /FC C:\USERS\GLLM\CODE\OF_V0.10.0_VS2017_RELEASE\ADDONS\OFXGUI\SRC\OFXGUIGROUP.CPP
^C:\USERS\GLLM\CODE\OF_V0.10.0_VS2017_RELEASE\ADDONS\OFXGUI\SRC\OFXINPUTFIELD.CPP
/c /IC:\USERS\GLLM\CODE\OF_V0.10.0_VS2017_RELEASE\LIBS\OPENFRAMEWORKSCOMPILED\PROJECT\VS\\..\..\..\..\\LIBS\OPENFRAMEWORKS /IC:\USERS\GLLM\CODE\OF_V0.10.0_VS2017_RELEASE\LIBS\OPENFRAMEWORKSCOMPILED\PROJECT\VS\\..\..\..\..\\LIBS\OPENFRAMEWORKS\GRAPHICS /IC:\USERS\GLLM\CODE\OF_V0.10.0_VS2017_RELEASE\LIBS\OPENFRAMEWORKSCOMPILED\PROJECT\VS\\..\..\..\..\\LIBS\OPENFRAMEWORKS\APP /IC:\USERS\GLLM\CODE\OF_V0.10.0_VS2017_RELEASE\LIBS\OPENFRAMEWORKSCOMPILED\PROJECT\VS\\..\..\..\..\\LIBS\OPENFRAMEWORKS\SOUND /IC:\USERS\GLLM\CODE\OF_V0.10.0_VS2017_RELEASE\LIBS\OPENFRAMEWORKSCOMPILED\PROJECT\VS\\..\..\..\..\\LIBS\OPENFRAMEWORKS\UTILS /IC:\USERS\GLLM\CODE\OF_V0.10.0_VS2017_RELEASE\LIBS\OPENFRAMEWORKSCOMPILED\PROJECT\VS\\..\..\..\..\\LIBS\OPENFRAMEWORKS\COMMUNICATION /IC:\USERS\GLLM\CODE\OF_V0.10.0_VS2017_RELEASE\LIBS\OPENFRAMEWORKSCOMPILED\PROJECT\VS\\..\..\..\..\\LIBS\OPENFRAMEWORKS\VIDEO /IC:\USERS\GLLM\CODE\OF_V0.10.0_VS2017_RELEASE\LIBS\OPENFRAMEWORKSCOMPILED\PROJECT\VS\\..\..\..\..\\LIBS\OPENFRAMEWORKS\TYPES /IC:\USERS\GLLM\CODE\OF_V0.10.0_VS2017_RELEASE\LIBS\OPENFRAMEWORKSCOMPILED\PROJECT\VS\\..\..\..\..\\LIBS\OPENFRAMEWORKS\MATH /IC:\USERS\GLLM\CODE\OF_V0.10.0_VS2017_RELEASE\LIBS\OPENFRAMEWORKSCOMPILED\PROJECT\VS\\..\..\..\..\\LIBS\OPENFRAMEWORKS\3D /IC:\USERS\GLLM\CODE\OF_V0.10.0_VS2017_RELEASE\LIBS\OPENFRAMEWORKSCOMPILED\PROJECT\VS\\..\..\..\..\\LIBS\OPENFRAMEWORKS\GL /IC:\USERS\GLLM\CODE\OF_V0.10.0_VS2017_RELEASE\LIBS\OPENFRAMEWORKSCOMPILED\PROJECT\VS\\..\..\..\..\\LIBS\OPENFRAMEWORKS\EVENTS /IC:\USERS\GLLM\CODE\OF_V0.10.0_VS2017_RELEASE\LIBS\OPENFRAMEWORKSCOMPILED\PROJECT\VS\\..\..\..\..\\LIBS\GLM\INCLUDE /IC:\USERS\GLLM\CODE\OF_V0.10.0_VS2017_RELEASE\LIBS\OPENFRAMEWORKSCOMPILED\PROJECT\VS\\..\..\..\..\\LIBS\RTAUDIO\INCLUDE /IC:\USERS\GLLM\CODE\OF_V0.10.0_VS2017_RELEASE\LIBS\OPENFRAMEWORKSCOMPILED\PROJECT\VS\\..\..\..\..\\LIBS\QUICKTIME\INCLUDE /IC:\USERS\GLLM\CODE\OF_V0.10.0_VS2017_RELEASE\LIBS\OPENFRAMEWORKSCOMPILED\PROJECT\VS\\..\..\..\..\\LIBS\FREETYPE\INCLUDE /IC:\USERS\GLLM\CODE\OF_V0.10.0_VS2017_RELEASE\LIBS\OPENFRAMEWORKSCOMPILED\PROJECT\VS\\..\..\..\..\\LIBS\FREETYPE\INCLUDE\FREETYPE2 /IC:\USERS\GLLM\CODE\OF_V0.10.0_VS2017_RELEASE\LIBS\OPENFRAMEWORKSCOMPILED\PROJECT\VS\\..\..\..\..\\LIBS\FREEIMAGE\INCLUDE /IC:\USERS\GLLM\CODE\OF_V0.10.0_VS2017_RELEASE\LIBS\OPENFRAMEWORKSCOMPILED\PROJECT\VS\\..\..\..\..\\LIBS\FMODEX\INCLUDE /IC:\USERS\GLLM\CODE\OF_V0.10.0_VS2017_RELEASE\LIBS\OPENFRAMEWORKSCOMPILED\PROJECT\VS\\..\..\..\..\\LIBS\VIDEOINPUT\INCLUDE /IC:\USERS\GLLM\CODE\OF_V0.10.0_VS2017_RELEASE\LIBS\OPENFRAMEWORKSCOMPILED\PROJECT\VS\\..\..\..\..\\LIBS\GLEW\INCLUDE\ /IC:\USERS\GLLM\CODE\OF_V0.10.0_VS2017_RELEASE\LIBS\OPENFRAMEWORKSCOMPILED\PROJECT\VS\\..\..\..\..\\LIBS\GLU\INCLUDE /IC:\USERS\GLLM\CODE\OF_V0.10.0_VS2017_RELEASE\LIBS\OPENFRAMEWORKSCOMPILED\PROJECT\VS\\..\..\..\..\\LIBS\TESS2\INCLUDE /IC:\USERS\GLLM\CODE\OF_V0.10.0_VS2017_RELEASE\LIBS\OPENFRAMEWORKSCOMPILED\PROJECT\VS\\..\..\..\..\\LIBS\CAIRO\INCLUDE\CAIRO /IC:\USERS\GLLM\CODE\OF_V0.10.0_VS2017_RELEASE\LIBS\OPENFRAMEWORKSCOMPILED\PROJECT\VS\\..\..\..\..\\LIBS\GLFW\INCLUDE /IC:\USERS\GLLM\CODE\OF_V0.10.0_VS2017_RELEASE\LIBS\OPENFRAMEWORKSCOMPILED\PROJECT\VS\\..\..\..\..\\LIBS\OPENSSL\INCLUDE /IC:\USERS\GLLM\CODE\OF_V0.10.0_VS2017_RELEASE\LIBS\OPENFRAMEWORKSCOMPILED\PROJECT\VS\\..\..\..\..\\LIBS\UTF8\INCLUDE /IC:\USERS\GLLM\CODE\OF_V0.10.0_VS2017_RELEASE\LIBS\OPENFRAMEWORKSCOMPILED\PROJECT\VS\\..\..\..\..\\LIBS\BOOST\INCLUDE /IC:\USERS\GLLM\CODE\OF_V0.10.0_VS2017_RELEASE\LIBS\OPENFRAMEWORKSCOMPILED\PROJECT\VS\\..\..\..\..\\LIBS\JSON\INCLUDE /IC:\USERS\GLLM\CODE\OF_V0.10.0_VS2017_RELEASE\LIBS\OPENFRAMEWORKSCOMPILED\PROJECT\VS\\..\..\..\..\\LIBS\CURL\INCLUDE /IC:\USERS\GLLM\CODE\OF_V0.10.0_VS2017_RELEASE\LIBS\OPENFRAMEWORKSCOMPILED\PROJECT\VS\\..\..\..\..\\LIBS\URIPARSER\INCLUDE /IC:\USERS\GLLM\CODE\OF_V0.10.0_VS2017_RELEASE\LIBS\OPENFRAMEWORKSCOMPILED\PROJECT\VS\\..\..\..\..\\LIBS\PUGIXML\INCLUDE /IC:\USERS\GLLM\CODE\OF_V0.10.0_VS2017_RELEASE\LIBS\OPENFRAMEWORKSCOMPILED\PROJECT\VS\\..\..\..\..\\ADDONS /I..\..\..\ADDONS\OFXGUI\SRC /Zi /nologo /W3 /WX- /diagnostics:classic /Od /D WIN32 /D _DEBUG /D _CONSOLE /D POCO_STATIC /D CAIRO_WIN32_STATIC_BUILD /D DISABLE_SOME_FLOATING_POINT /D CURL_STATICLIB /D _UNICODE /D UNICODE /Gm- /EHsc /RTC1 /MDd /GS /fp:precise /Zc:wchar_t /Zc:forScope /Zc:inline /Fo"OBJ\DEBUG\/..\..\..\ADDONS\OFXGUI\SRC\/" /Fd"OBJ\DEBUG\VC141.PDB" /Gd /TP /FC C:\USERS\GLLM\CODE\OF_V0.10.0_VS2017_RELEASE\ADDONS\OFXGUI\SRC\OFXINPUTFIELD.CPP
^C:\USERS\GLLM\CODE\OF_V0.10.0_VS2017_RELEASE\ADDONS\OFXGUI\SRC\OFXLABEL.CPP
/c /IC:\USERS\GLLM\CODE\OF_V0.10.0_VS2017_RELEASE\LIBS\OPENFRAMEWORKSCOMPILED\PROJECT\VS\\..\..\..\..\\LIBS\OPENFRAMEWORKS /IC:\USERS\GLLM\CODE\OF_V0.10.0_VS2017_RELEASE\LIBS\OPENFRAMEWORKSCOMPILED\PROJECT\VS\\..\..\..\..\\LIBS\OPENFRAMEWORKS\GRAPHICS /IC:\USERS\GLLM\CODE\OF_V0.10.0_VS2017_RELEASE\LIBS\OPENFRAMEWORKSCOMPILED\PROJECT\VS\\..\..\..\..\\LIBS\OPENFRAMEWORKS\APP /IC:\USERS\GLLM\CODE\OF_V0.10.0_VS2017_RELEASE\LIBS\OPENFRAMEWORKSCOMPILED\PROJECT\VS\\..\..\..\..\\LIBS\OPENFRAMEWORKS\SOUND /IC:\USERS\GLLM\CODE\OF_V0.10.0_VS2017_RELEASE\LIBS\OPENFRAMEWORKSCOMPILED\PROJECT\VS\\..\..\..\..\\LIBS\OPENFRAMEWORKS\UTILS /IC:\USERS\GLLM\CODE\OF_V0.10.0_VS2017_RELEASE\LIBS\OPENFRAMEWORKSCOMPILED\PROJECT\VS\\..\..\..\..\\LIBS\OPENFRAMEWORKS\COMMUNICATION /IC:\USERS\GLLM\CODE\OF_V0.10.0_VS2017_RELEASE\LIBS\OPENFRAMEWORKSCOMPILED\PROJECT\VS\\..\..\..\..\\LIBS\OPENFRAMEWORKS\VIDEO /IC:\USERS\GLLM\CODE\OF_V0.10.0_VS2017_RELEASE\LIBS\OPENFRAMEWORKSCOMPILED\PROJECT\VS\\..\..\..\..\\LIBS\OPENFRAMEWORKS\TYPES /IC:\USERS\GLLM\CODE\OF_V0.10.0_VS2017_RELEASE\LIBS\OPENFRAMEWORKSCOMPILED\PROJECT\VS\\..\..\..\..\\LIBS\OPENFRAMEWORKS\MATH /IC:\USERS\GLLM\CODE\OF_V0.10.0_VS2017_RELEASE\LIBS\OPENFRAMEWORKSCOMPILED\PROJECT\VS\\..\..\..\..\\LIBS\OPENFRAMEWORKS\3D /IC:\USERS\GLLM\CODE\OF_V0.10.0_VS2017_RELEASE\LIBS\OPENFRAMEWORKSCOMPILED\PROJECT\VS\\..\..\..\..\\LIBS\OPENFRAMEWORKS\GL /IC:\USERS\GLLM\CODE\OF_V0.10.0_VS2017_RELEASE\LIBS\OPENFRAMEWORKSCOMPILED\PROJECT\VS\\..\..\..\..\\LIBS\OPENFRAMEWORKS\EVENTS /IC:\USERS\GLLM\CODE\OF_V0.10.0_VS2017_RELEASE\LIBS\OPENFRAMEWORKSCOMPILED\PROJECT\VS\\..\..\..\..\\LIBS\GLM\INCLUDE /IC:\USERS\GLLM\CODE\OF_V0.10.0_VS2017_RELEASE\LIBS\OPENFRAMEWORKSCOMPILED\PROJECT\VS\\..\..\..\..\\LIBS\RTAUDIO\INCLUDE /IC:\USERS\GLLM\CODE\OF_V0.10.0_VS2017_RELEASE\LIBS\OPENFRAMEWORKSCOMPILED\PROJECT\VS\\..\..\..\..\\LIBS\QUICKTIME\INCLUDE /IC:\USERS\GLLM\CODE\OF_V0.10.0_VS2017_RELEASE\LIBS\OPENFRAMEWORKSCOMPILED\PROJECT\VS\\..\..\..\..\\LIBS\FREETYPE\INCLUDE /IC:\USERS\GLLM\CODE\OF_V0.10.0_VS2017_RELEASE\LIBS\OPENFRAMEWORKSCOMPILED\PROJECT\VS\\..\..\..\..\\LIBS\FREETYPE\INCLUDE\FREETYPE2 /IC:\USERS\GLLM\CODE\OF_V0.10.0_VS2017_RELEASE\LIBS\OPENFRAMEWORKSCOMPILED\PROJECT\VS\\..\..\..\..\\LIBS\FREEIMAGE\INCLUDE /IC:\USERS\GLLM\CODE\OF_V0.10.0_VS2017_RELEASE\LIBS\OPENFRAMEWORKSCOMPILED\PROJECT\VS\\..\..\..\..\\LIBS\FMODEX\INCLUDE /IC:\USERS\GLLM\CODE\OF_V0.10.0_VS2017_RELEASE\LIBS\OPENFRAMEWORKSCOMPILED\PROJECT\VS\\..\..\..\..\\LIBS\VIDEOINPUT\INCLUDE /IC:\USERS\GLLM\CODE\OF_V0.10.0_VS2017_RELEASE\LIBS\OPENFRAMEWORKSCOMPILED\PROJECT\VS\\..\..\..\..\\LIBS\GLEW\INCLUDE\ /IC:\USERS\GLLM\CODE\OF_V0.10.0_VS2017_RELEASE\LIBS\OPENFRAMEWORKSCOMPILED\PROJECT\VS\\..\..\..\..\\LIBS\GLU\INCLUDE /IC:\USERS\GLLM\CODE\OF_V0.10.0_VS2017_RELEASE\LIBS\OPENFRAMEWORKSCOMPILED\PROJECT\VS\\..\..\..\..\\LIBS\TESS2\INCLUDE /IC:\USERS\GLLM\CODE\OF_V0.10.0_VS2017_RELEASE\LIBS\OPENFRAMEWORKSCOMPILED\PROJECT\VS\\..\..\..\..\\LIBS\CAIRO\INCLUDE\CAIRO /IC:\USERS\GLLM\CODE\OF_V0.10.0_VS2017_RELEASE\LIBS\OPENFRAMEWORKSCOMPILED\PROJECT\VS\\..\..\..\..\\LIBS\GLFW\INCLUDE /IC:\USERS\GLLM\CODE\OF_V0.10.0_VS2017_RELEASE\LIBS\OPENFRAMEWORKSCOMPILED\PROJECT\VS\\..\..\..\..\\LIBS\OPENSSL\INCLUDE /IC:\USERS\GLLM\CODE\OF_V0.10.0_VS2017_RELEASE\LIBS\OPENFRAMEWORKSCOMPILED\PROJECT\VS\\..\..\..\..\\LIBS\UTF8\INCLUDE /IC:\USERS\GLLM\CODE\OF_V0.10.0_VS2017_RELEASE\LIBS\OPENFRAMEWORKSCOMPILED\PROJECT\VS\\..\..\..\..\\LIBS\BOOST\INCLUDE /IC:\USERS\GLLM\CODE\OF_V0.10.0_VS2017_RELEASE\LIBS\OPENFRAMEWORKSCOMPILED\PROJECT\VS\\..\..\..\..\\LIBS\JSON\INCLUDE /IC:\USERS\GLLM\CODE\OF_V0.10.0_VS2017_RELEASE\LIBS\OPENFRAMEWORKSCOMPILED\PROJECT\VS\\..\..\..\..\\LIBS\CURL\INCLUDE /IC:\USERS\GLLM\CODE\OF_V0.10.0_VS2017_RELEASE\LIBS\OPENFRAMEWORKSCOMPILED\PROJECT\VS\\..\..\..\..\\LIBS\URIPARSER\INCLUDE /IC:\USERS\GLLM\CODE\OF_V0.10.0_VS2017_RELEASE\LIBS\OPENFRAMEWORKSCOMPILED\PROJECT\VS\\..\..\..\..\\LIBS\PUGIXML\INCLUDE /IC:\USERS\GLLM\CODE\OF_V0.10.0_VS2017_RELEASE\LIBS\OPENFRAMEWORKSCOMPILED\PROJECT\VS\\..\..\..\..\\ADDONS /I..\..\..\ADDONS\OFXGUI\SRC /Zi /nologo /W3 /WX- /diagnostics:classic /Od /D WIN32 /D _DEBUG /D _CONSOLE /D POCO_STATIC /D CAIRO_WIN32_STATIC_BUILD /D DISABLE_SOME_FLOATING_POINT /D CURL_STATICLIB /D _UNICODE /D UNICODE /Gm- /EHsc /RTC1 /MDd /GS /fp:precise /Zc:wchar_t /Zc:forScope /Zc:inline /Fo"OBJ\DEBUG\/..\..\..\ADDONS\OFXGUI\SRC\/" /Fd"OBJ\DEBUG\VC141.PDB" /Gd /TP /FC C:\USERS\GLLM\CODE\OF_V0.10.0_VS2017_RELEASE\ADDONS\OFXGUI\SRC\OFXLABEL.CPP
^C:\USERS\GLLM\CODE\OF_V0.10.0_VS2017_RELEASE\ADDONS\OFXGUI\SRC\OFXPANEL.CPP
/c /IC:\USERS\GLLM\CODE\OF_V0.10.0_VS2017_RELEASE\LIBS\OPENFRAMEWORKSCOMPILED\PROJECT\VS\\..\..\..\..\\LIBS\OPENFRAMEWORKS /IC:\USERS\GLLM\CODE\OF_V0.10.0_VS2017_RELEASE\LIBS\OPENFRAMEWORKSCOMPILED\PROJECT\VS\\..\..\..\..\\LIBS\OPENFRAMEWORKS\GRAPHICS /IC:\USERS\GLLM\CODE\OF_V0.10.0_VS2017_RELEASE\LIBS\OPENFRAMEWORKSCOMPILED\PROJECT\VS\\..\..\..\..\\LIBS\OPENFRAMEWORKS\APP /IC:\USERS\GLLM\CODE\OF_V0.10.0_VS2017_RELEASE\LIBS\OPENFRAMEWORKSCOMPILED\PROJECT\VS\\..\..\..\..\\LIBS\OPENFRAMEWORKS\SOUND /IC:\USERS\GLLM\CODE\OF_V0.10.0_VS2017_RELEASE\LIBS\OPENFRAMEWORKSCOMPILED\PROJECT\VS\\..\..\..\..\\LIBS\OPENFRAMEWORKS\UTILS /IC:\USERS\GLLM\CODE\OF_V0.10.0_VS2017_RELEASE\LIBS\OPENFRAMEWORKSCOMPILED\PROJECT\VS\\..\..\..\..\\LIBS\OPENFRAMEWORKS\COMMUNICATION /IC:\USERS\GLLM\CODE\OF_V0.10.0_VS2017_RELEASE\LIBS\OPENFRAMEWORKSCOMPILED\PROJECT\VS\\..\..\..\..\\LIBS\OPENFRAMEWORKS\VIDEO /IC:\USERS\GLLM\CODE\OF_V0.10.0_VS2017_RELEASE\LIBS\OPENFRAMEWORKSCOMPILED\PROJECT\VS\\..\..\..\..\\LIBS\OPENFRAMEWORKS\TYPES /IC:\USERS\GLLM\CODE\OF_V0.10.0_VS2017_RELEASE\LIBS\OPENFRAMEWORKSCOMPILED\PROJECT\VS\\..\..\..\..\\LIBS\OPENFRAMEWORKS\MATH /IC:\USERS\GLLM\CODE\OF_V0.10.0_VS2017_RELEASE\LIBS\OPENFRAMEWORKSCOMPILED\PROJECT\VS\\..\..\..\..\\LIBS\OPENFRAMEWORKS\3D /IC:\USERS\GLLM\CODE\OF_V0.10.0_VS2017_RELEASE\LIBS\OPENFRAMEWORKSCOMPILED\PROJECT\VS\\..\..\..\..\\LIBS\OPENFRAMEWORKS\GL /IC:\USERS\GLLM\CODE\OF_V0.10.0_VS2017_RELEASE\LIBS\OPENFRAMEWORKSCOMPILED\PROJECT\VS\\..\..\..\..\\LIBS\OPENFRAMEWORKS\EVENTS /IC:\USERS\GLLM\CODE\OF_V0.10.0_VS2017_RELEASE\LIBS\OPENFRAMEWORKSCOMPILED\PROJECT\VS\\..\..\..\..\\LIBS\GLM\INCLUDE /IC:\USERS\GLLM\CODE\OF_V0.10.0_VS2017_RELEASE\LIBS\OPENFRAMEWORKSCOMPILED\PROJECT\VS\\..\..\..\..\\LIBS\RTAUDIO\INCLUDE /IC:\USERS\GLLM\CODE\OF_V0.10.0_VS2017_RELEASE\LIBS\OPENFRAMEWORKSCOMPILED\PROJECT\VS\\..\..\..\..\\LIBS\QUICKTIME\INCLUDE /IC:\USERS\GLLM\CODE\OF_V0.10.0_VS2017_RELEASE\LIBS\OPENFRAMEWORKSCOMPILED\PROJECT\VS\\..\..\..\..\\LIBS\FREETYPE\INCLUDE /IC:\USERS\GLLM\CODE\OF_V0.10.0_VS2017_RELEASE\LIBS\OPENFRAMEWORKSCOMPILED\PROJECT\VS\\..\..\..\..\\LIBS\FREETYPE\INCLUDE\FREETYPE2 /IC:\USERS\GLLM\CODE\OF_V0.10.0_VS2017_RELEASE\LIBS\OPENFRAMEWORKSCOMPILED\PROJECT\VS\\..\..\..\..\\LIBS\FREEIMAGE\INCLUDE /IC:\USERS\GLLM\CODE\OF_V0.10.0_VS2017_RELEASE\LIBS\OPENFRAMEWORKSCOMPILED\PROJECT\VS\\..\..\..\..\\LIBS\FMODEX\INCLUDE /IC:\USERS\GLLM\CODE\OF_V0.10.0_VS2017_RELEASE\LIBS\OPENFRAMEWORKSCOMPILED\PROJECT\VS\\..\..\..\..\\LIBS\VIDEOINPUT\INCLUDE /IC:\USERS\GLLM\CODE\OF_V0.10.0_VS2017_RELEASE\LIBS\OPENFRAMEWORKSCOMPILED\PROJECT\VS\\..\..\..\..\\LIBS\GLEW\INCLUDE\ /IC:\USERS\GLLM\CODE\OF_V0.10.0_VS2017_RELEASE\LIBS\OPENFRAMEWORKSCOMPILED\PROJECT\VS\\..\..\..\..\\LIBS\GLU\INCLUDE /IC:\USERS\GLLM\CODE\OF_V0.10.0_VS2017_RELEASE\LIBS\OPENFRAMEWORKSCOMPILED\PROJECT\VS\\..\..\..\..\\LIBS\TESS2\INCLUDE /IC:\USERS\GLLM\CODE\OF_V0.10.0_VS2017_RELEASE\LIBS\OPENFRAMEWORKSCOMPILED\PROJECT\VS\\..\..\..\..\\LIBS\CAIRO\INCLUDE\CAIRO /IC:\USERS\GLLM\CODE\OF_V0.10.0_VS2017_RELEASE\LIBS\OPENFRAMEWORKSCOMPILED\PROJECT\VS\\..\..\..\..\\LIBS\GLFW\INCLUDE /IC:\USERS\GLLM\CODE\OF_V0.10.0_VS2017_RELEASE\LIBS\OPENFRAMEWORKSCOMPILED\PROJECT\VS\\..\..\..\..\\LIBS\OPENSSL\INCLUDE /IC:\USERS\GLLM\CODE\OF_V0.10.0_VS2017_RELEASE\LIBS\OPENFRAMEWORKSCOMPILED\PROJECT\VS\\..\..\..\..\\LIBS\UTF8\INCLUDE /IC:\USERS\GLLM\CODE\OF_V0.10.0_VS2017_RELEASE\LIBS\OPENFRAMEWORKSCOMPILED\PROJECT\VS\\..\..\..\..\\LIBS\BOOST\INCLUDE /IC:\USERS\GLLM\CODE\OF_V0.10.0_VS2017_RELEASE\LIBS\OPENFRAMEWORKSCOMPILED\PROJECT\VS\\..\..\..\..\\LIBS\JSON\INCLUDE /IC:\USERS\GLLM\CODE\OF_V0.10.0_VS2017_RELEASE\LIBS\OPENFRAMEWORKSCOMPILED\PROJECT\VS\\..\..\..\..\\LIBS\CURL\INCLUDE /IC:\USERS\GLLM\CODE\OF_V0.10.0_VS2017_RELEASE\LIBS\OPENFRAMEWORKSCOMPILED\PROJECT\VS\\..\..\..\..\\LIBS\URIPARSER\INCLUDE /IC:\USERS\GLLM\CODE\OF_V0.10.0_VS2017_RELEASE\LIBS\OPENFRAMEWORKSCOMPILED\PROJECT\VS\\..\..\..\..\\LIBS\PUGIXML\INCLUDE /IC:\USERS\GLLM\CODE\OF_V0.10.0_VS2017_RELEASE\LIBS\OPENFRAMEWORKSCOMPILED\PROJECT\VS\\..\..\..\..\\ADDONS /I..\..\..\ADDONS\OFXGUI\SRC /Zi /nologo /W3 /WX- /diagnostics:classic /Od /D WIN32 /D _DEBUG /D _CONSOLE /D POCO_STATIC /D CAIRO_WIN32_STATIC_BUILD /D DISABLE_SOME_FLOATING_POINT /D CURL_STATICLIB /D _UNICODE /D UNICODE /Gm- /EHsc /RTC1 /MDd /GS /fp:precise /Zc:wchar_t /Zc:forScope /Zc:inline /Fo"OBJ\DEBUG\/..\..\..\ADDONS\OFXGUI\SRC\/" /Fd"OBJ\DEBUG\VC141.PDB" /Gd /TP /FC C:\USERS\GLLM\CODE\OF_V0.10.0_VS2017_RELEASE\ADDONS\OFXGUI\SRC\OFXPANEL.CPP
^C:\USERS\GLLM\CODE\OF_V0.10.0_VS2017_RELEASE\ADDONS\OFXGUI\SRC\OFXSLIDER.CPP
/c /IC:\USERS\GLLM\CODE\OF_V0.10.0_VS2017_RELEASE\LIBS\OPENFRAMEWORKSCOMPILED\PROJECT\VS\\..\..\..\..\\LIBS\OPENFRAMEWORKS /IC:\USERS\GLLM\CODE\OF_V0.10.0_VS2017_RELEASE\LIBS\OPENFRAMEWORKSCOMPILED\PROJECT\VS\\..\..\..\..\\LIBS\OPENFRAMEWORKS\GRAPHICS /IC:\USERS\GLLM\CODE\OF_V0.10.0_VS2017_RELEASE\LIBS\OPENFRAMEWORKSCOMPILED\PROJECT\VS\\..\..\..\..\\LIBS\OPENFRAMEWORKS\APP /IC:\USERS\GLLM\CODE\OF_V0.10.0_VS2017_RELEASE\LIBS\OPENFRAMEWORKSCOMPILED\PROJECT\VS\\..\..\..\..\\LIBS\OPENFRAMEWORKS\SOUND /IC:\USERS\GLLM\CODE\OF_V0.10.0_VS2017_RELEASE\LIBS\OPENFRAMEWORKSCOMPILED\PROJECT\VS\\..\..\..\..\\LIBS\OPENFRAMEWORKS\UTILS /IC:\USERS\GLLM\CODE\OF_V0.10.0_VS2017_RELEASE\LIBS\OPENFRAMEWORKSCOMPILED\PROJECT\VS\\..\..\..\..\\LIBS\OPENFRAMEWORKS\COMMUNICATION /IC:\USERS\GLLM\CODE\OF_V0.10.0_VS2017_RELEASE\LIBS\OPENFRAMEWORKSCOMPILED\PROJECT\VS\\..\..\..\..\\LIBS\OPENFRAMEWORKS\VIDEO /IC:\USERS\GLLM\CODE\OF_V0.10.0_VS2017_RELEASE\LIBS\OPENFRAMEWORKSCOMPILED\PROJECT\VS\\..\..\..\..\\LIBS\OPENFRAMEWORKS\TYPES /IC:\USERS\GLLM\CODE\OF_V0.10.0_VS2017_RELEASE\LIBS\OPENFRAMEWORKSCOMPILED\PROJECT\VS\\..\..\..\..\\LIBS\OPENFRAMEWORKS\MATH /IC:\USERS\GLLM\CODE\OF_V0.10.0_VS2017_RELEASE\LIBS\OPENFRAMEWORKSCOMPILED\PROJECT\VS\\..\..\..\..\\LIBS\OPENFRAMEWORKS\3D /IC:\USERS\GLLM\CODE\OF_V0.10.0_VS2017_RELEASE\LIBS\OPENFRAMEWORKSCOMPILED\PROJECT\VS\\..\..\..\..\\LIBS\OPENFRAMEWORKS\GL /IC:\USERS\GLLM\CODE\OF_V0.10.0_VS2017_RELEASE\LIBS\OPENFRAMEWORKSCOMPILED\PROJECT\VS\\..\..\..\..\\LIBS\OPENFRAMEWORKS\EVENTS /IC:\USERS\GLLM\CODE\OF_V0.10.0_VS2017_RELEASE\LIBS\OPENFRAMEWORKSCOMPILED\PROJECT\VS\\..\..\..\..\\LIBS\GLM\INCLUDE /IC:\USERS\GLLM\CODE\OF_V0.10.0_VS2017_RELEASE\LIBS\OPENFRAMEWORKSCOMPILED\PROJECT\VS\\..\..\..\..\\LIBS\RTAUDIO\INCLUDE /IC:\USERS\GLLM\CODE\OF_V0.10.0_VS2017_RELEASE\LIBS\OPENFRAMEWORKSCOMPILED\PROJECT\VS\\..\..\..\..\\LIBS\QUICKTIME\INCLUDE /IC:\USERS\GLLM\CODE\OF_V0.10.0_VS2017_RELEASE\LIBS\OPENFRAMEWORKSCOMPILED\PROJECT\VS\\..\..\..\..\\LIBS\FREETYPE\INCLUDE /IC:\USERS\GLLM\CODE\OF_V0.10.0_VS2017_RELEASE\LIBS\OPENFRAMEWORKSCOMPILED\PROJECT\VS\\..\..\..\..\\LIBS\FREETYPE\INCLUDE\FREETYPE2 /IC:\USERS\GLLM\CODE\OF_V0.10.0_VS2017_RELEASE\LIBS\OPENFRAMEWORKSCOMPILED\PROJECT\VS\\..\..\..\..\\LIBS\FREEIMAGE\INCLUDE /IC:\USERS\GLLM\CODE\OF_V0.10.0_VS2017_RELEASE\LIBS\OPENFRAMEWORKSCOMPILED\PROJECT\VS\\..\..\..\..\\LIBS\FMODEX\INCLUDE /IC:\USERS\GLLM\CODE\OF_V0.10.0_VS2017_RELEASE\LIBS\OPENFRAMEWORKSCOMPILED\PROJECT\VS\\..\..\..\..\\LIBS\VIDEOINPUT\INCLUDE /IC:\USERS\GLLM\CODE\OF_V0.10.0_VS2017_RELEASE\LIBS\OPENFRAMEWORKSCOMPILED\PROJECT\VS\\..\..\..\..\\LIBS\GLEW\INCLUDE\ /IC:\USERS\GLLM\CODE\OF_V0.10.0_VS2017_RELEASE\LIBS\OPENFRAMEWORKSCOMPILED\PROJECT\VS\\..\..\..\..\\LIBS\GLU\INCLUDE /IC:\USERS\GLLM\CODE\OF_V0.10.0_VS2017_RELEASE\LIBS\OPENFRAMEWORKSCOMPILED\PROJECT\VS\\..\..\..\..\\LIBS\TESS2\INCLUDE /IC:\USERS\GLLM\CODE\OF_V0.10.0_VS2017_RELEASE\LIBS\OPENFRAMEWORKSCOMPILED\PROJECT\VS\\..\..\..\..\\LIBS\CAIRO\INCLUDE\CAIRO /IC:\USERS\GLLM\CODE\OF_V0.10.0_VS2017_RELEASE\LIBS\OPENFRAMEWORKSCOMPILED\PROJECT\VS\\..\..\..\..\\LIBS\GLFW\INCLUDE /IC:\USERS\GLLM\CODE\OF_V0.10.0_VS2017_RELEASE\LIBS\OPENFRAMEWORKSCOMPILED\PROJECT\VS\\..\..\..\..\\LIBS\OPENSSL\INCLUDE /IC:\USERS\GLLM\CODE\OF_V0.10.0_VS2017_RELEASE\LIBS\OPENFRAMEWORKSCOMPILED\PROJECT\VS\\..\..\..\..\\LIBS\UTF8\INCLUDE /IC:\USERS\GLLM\CODE\OF_V0.10.0_VS2017_RELEASE\LIBS\OPENFRAMEWORKSCOMPILED\PROJECT\VS\\..\..\..\..\\LIBS\BOOST\INCLUDE /IC:\USERS\GLLM\CODE\OF_V0.10.0_VS2017_RELEASE\LIBS\OPENFRAMEWORKSCOMPILED\PROJECT\VS\\..\..\..\..\\LIBS\JSON\INCLUDE /IC:\USERS\GLLM\CODE\OF_V0.10.0_VS2017_RELEASE\LIBS\OPENFRAMEWORKSCOMPILED\PROJECT\VS\\..\..\..\..\\LIBS\CURL\INCLUDE /IC:\USERS\GLLM\CODE\OF_V0.10.0_VS2017_RELEASE\LIBS\OPENFRAMEWORKSCOMPILED\PROJECT\VS\\..\..\..\..\\LIBS\URIPARSER\INCLUDE /IC:\USERS\GLLM\CODE\OF_V0.10.0_VS2017_RELEASE\LIBS\OPENFRAMEWORKSCOMPILED\PROJECT\VS\\..\..\..\..\\LIBS\PUGIXML\INCLUDE /IC:\USERS\GLLM\CODE\OF_V0.10.0_VS2017_RELEASE\LIBS\OPENFRAMEWORKSCOMPILED\PROJECT\VS\\..\..\..\..\\ADDONS /I..\..\..\ADDONS\OFXGUI\SRC /Zi /nologo /W3 /WX- /diagnostics:classic /Od /D WIN32 /D _DEBUG /D _CONSOLE /D POCO_STATIC /D CAIRO_WIN32_STATIC_BUILD /D DISABLE_SOME_FLOATING_POINT /D CURL_STATICLIB /D _UNICODE /D UNICODE /Gm- /EHsc /RTC1 /MDd /GS /fp:precise /Zc:wchar_t /Zc:forScope /Zc:inline /Fo"OBJ\DEBUG\/..\..\..\ADDONS\OFXGUI\SRC\/" /Fd"OBJ\DEBUG\VC141.PDB" /Gd /TP /FC C:\USERS\GLLM\CODE\OF_V0.10.0_VS2017_RELEASE\ADDONS\OFXGUI\SRC\OFXSLIDER.CPP
^C:\USERS\GLLM\CODE\OF_V0.10.0_VS2017_RELEASE\ADDONS\OFXGUI\SRC\OFXSLIDERGROUP.CPP
/c /IC:\USERS\GLLM\CODE\OF_V0.10.0_VS2017_RELEASE\LIBS\OPENFRAMEWORKSCOMPILED\PROJECT\VS\\..\..\..\..\\LIBS\OPENFRAMEWORKS /IC:\USERS\GLLM\CODE\OF_V0.10.0_VS2017_RELEASE\LIBS\OPENFRAMEWORKSCOMPILED\PROJECT\VS\\..\..\..\..\\LIBS\OPENFRAMEWORKS\GRAPHICS /IC:\USERS\GLLM\CODE\OF_V0.10.0_VS2017_RELEASE\LIBS\OPENFRAMEWORKSCOMPILED\PROJECT\VS\\..\..\..\..\\LIBS\OPENFRAMEWORKS\APP /IC:\USERS\GLLM\CODE\OF_V0.10.0_VS2017_RELEASE\LIBS\OPENFRAMEWORKSCOMPILED\PROJECT\VS\\..\..\..\..\\LIBS\OPENFRAMEWORKS\SOUND /IC:\USERS\GLLM\CODE\OF_V0.10.0_VS2017_RELEASE\LIBS\OPENFRAMEWORKSCOMPILED\PROJECT\VS\\..\..\..\..\\LIBS\OPENFRAMEWORKS\UTILS /IC:\USERS\GLLM\CODE\OF_V0.10.0_VS2017_RELEASE\LIBS\OPENFRAMEWORKSCOMPILED\PROJECT\VS\\..\..\..\..\\LIBS\OPENFRAMEWORKS\COMMUNICATION /IC:\USERS\GLLM\CODE\OF_V0.10.0_VS2017_RELEASE\LIBS\OPENFRAMEWORKSCOMPILED\PROJECT\VS\\..\..\..\..\\LIBS\OPENFRAMEWORKS\VIDEO /IC:\USERS\GLLM\CODE\OF_V0.10.0_VS2017_RELEASE\LIBS\OPENFRAMEWORKSCOMPILED\PROJECT\VS\\..\..\..\..\\LIBS\OPENFRAMEWORKS\TYPES /IC:\USERS\GLLM\CODE\OF_V0.10.0_VS2017_RELEASE\LIBS\OPENFRAMEWORKSCOMPILED\PROJECT\VS\\..\..\..\..\\LIBS\OPENFRAMEWORKS\MATH /IC:\USERS\GLLM\CODE\OF_V0.10.0_VS2017_RELEASE\LIBS\OPENFRAMEWORKSCOMPILED\PROJECT\VS\\..\..\..\..\\LIBS\OPENFRAMEWORKS\3D /IC:\USERS\GLLM\CODE\OF_V0.10.0_VS2017_RELEASE\LIBS\OPENFRAMEWORKSCOMPILED\PROJECT\VS\\..\..\..\..\\LIBS\OPENFRAMEWORKS\GL /IC:\USERS\GLLM\CODE\OF_V0.10.0_VS2017_RELEASE\LIBS\OPENFRAMEWORKSCOMPILED\PROJECT\VS\\..\..\..\..\\LIBS\OPENFRAMEWORKS\EVENTS /IC:\USERS\GLLM\CODE\OF_V0.10.0_VS2017_RELEASE\LIBS\OPENFRAMEWORKSCOMPILED\PROJECT\VS\\..\..\..\..\\LIBS\GLM\INCLUDE /IC:\USERS\GLLM\CODE\OF_V0.10.0_VS2017_RELEASE\LIBS\OPENFRAMEWORKSCOMPILED\PROJECT\VS\\..\..\..\..\\LIBS\RTAUDIO\INCLUDE /IC:\USERS\GLLM\CODE\OF_V0.10.0_VS2017_RELEASE\LIBS\OPENFRAMEWORKSCOMPILED\PROJECT\VS\\..\..\..\..\\LIBS\QUICKTIME\INCLUDE /IC:\USERS\GLLM\CODE\OF_V0.10.0_VS2017_RELEASE\LIBS\OPENFRAMEWORKSCOMPILED\PROJECT\VS\\..\..\..\..\\LIBS\FREETYPE\INCLUDE /IC:\USERS\GLLM\CODE\OF_V0.10.0_VS2017_RELEASE\LIBS\OPENFRAMEWORKSCOMPILED\PROJECT\VS\\..\..\..\..\\LIBS\FREETYPE\INCLUDE\FREETYPE2 /IC:\USERS\GLLM\CODE\OF_V0.10.0_VS2017_RELEASE\LIBS\OPENFRAMEWORKSCOMPILED\PROJECT\VS\\..\..\..\..\\LIBS\FREEIMAGE\INCLUDE /IC:\USERS\GLLM\CODE\OF_V0.10.0_VS2017_RELEASE\LIBS\OPENFRAMEWORKSCOMPILED\PROJECT\VS\\..\..\..\..\\LIBS\FMODEX\INCLUDE /IC:\USERS\GLLM\CODE\OF_V0.10.0_VS2017_RELEASE\LIBS\OPENFRAMEWORKSCOMPILED\PROJECT\VS\\..\..\..\..\\LIBS\VIDEOINPUT\INCLUDE /IC:\USERS\GLLM\CODE\OF_V0.10.0_VS2017_RELEASE\LIBS\OPENFRAMEWORKSCOMPILED\PROJECT\VS\\..\..\..\..\\LIBS\GLEW\INCLUDE\ /IC:\USERS\GLLM\CODE\OF_V0.10.0_VS2017_RELEASE\LIBS\OPENFRAMEWORKSCOMPILED\PROJECT\VS\\..\..\..\..\\LIBS\GLU\INCLUDE /IC:\USERS\GLLM\CODE\OF_V0.10.0_VS2017_RELEASE\LIBS\OPENFRAMEWORKSCOMPILED\PROJECT\VS\\..\..\..\..\\LIBS\TESS2\INCLUDE /IC:\USERS\GLLM\CODE\OF_V0.10.0_VS2017_RELEASE\LIBS\OPENFRAMEWORKSCOMPILED\PROJECT\VS\\..\..\..\..\\LIBS\CAIRO\INCLUDE\CAIRO /IC:\USERS\GLLM\CODE\OF_V0.10.0_VS2017_RELEASE\LIBS\OPENFRAMEWORKSCOMPILED\PROJECT\VS\\..\..\..\..\\LIBS\GLFW\INCLUDE /IC:\USERS\GLLM\CODE\OF_V0.10.0_VS2017_RELEASE\LIBS\OPENFRAMEWORKSCOMPILED\PROJECT\VS\\..\..\..\..\\LIBS\OPENSSL\INCLUDE /IC:\USERS\GLLM\CODE\OF_V0.10.0_VS2017_RELEASE\LIBS\OPENFRAMEWORKSCOMPILED\PROJECT\VS\\..\..\..\..\\LIBS\UTF8\INCLUDE /IC:\USERS\GLLM\CODE\OF_V0.10.0_VS2017_RELEASE\LIBS\OPENFRAMEWORKSCOMPILED\PROJECT\VS\\..\..\..\..\\LIBS\BOOST\INCLUDE /IC:\USERS\GLLM\CODE\OF_V0.10.0_VS2017_RELEASE\LIBS\OPENFRAMEWORKSCOMPILED\PROJECT\VS\\..\..\..\..\\LIBS\JSON\INCLUDE /IC:\USERS\GLLM\CODE\OF_V0.10.0_VS2017_RELEASE\LIBS\OPENFRAMEWORKSCOMPILED\PROJECT\VS\\..\..\..\..\\LIBS\CURL\INCLUDE /IC:\USERS\GLLM\CODE\OF_V0.10.0_VS2017_RELEASE\LIBS\OPENFRAMEWORKSCOMPILED\PROJECT\VS\\..\..\..\..\\LIBS\URIPARSER\INCLUDE /IC:\USERS\GLLM\CODE\OF_V0.10.0_VS2017_RELEASE\LIBS\OPENFRAMEWORKSCOMPILED\PROJECT\VS\\..\..\..\..\\LIBS\PUGIXML\INCLUDE /IC:\USERS\GLLM\CODE\OF_V0.10.0_VS2017_RELEASE\LIBS\OPENFRAMEWORKSCOMPILED\PROJECT\VS\\..\..\..\..\\ADDONS /I..\..\..\ADDONS\OFXGUI\SRC /Zi /nologo /W3 /WX- /diagnostics:classic /Od /D WIN32 /D _DEBUG /D _CONSOLE /D POCO_STATIC /D CAIRO_WIN32_STATIC_BUILD /D DISABLE_SOME_FLOATING_POINT /D CURL_STATICLIB /D _UNICODE /D UNICODE /Gm- /EHsc /RTC1 /MDd /GS /fp:precise /Zc:wchar_t /Zc:forScope /Zc:inline /Fo"OBJ\DEBUG\/..\..\..\ADDONS\OFXGUI\SRC\/" /Fd"OBJ\DEBUG\VC141.PDB" /Gd /TP /FC C:\USERS\GLLM\CODE\OF_V0.10.0_VS2017_RELEASE\ADDONS\OFXGUI\SRC\OFXSLIDERGROUP.CPP
^C:\USERS\GLLM\CODE\OF_V0.10.0_VS2017_RELEASE\ADDONS\OFXGUI\SRC\OFXTOGGLE.CPP
/c /IC:\USERS\GLLM\CODE\OF_V0.10.0_VS2017_RELEASE\LIBS\OPENFRAMEWORKSCOMPILED\PROJECT\VS\\..\..\..\..\\LIBS\OPENFRAMEWORKS /IC:\USERS\GLLM\CODE\OF_V0.10.0_VS2017_RELEASE\LIBS\OPENFRAMEWORKSCOMPILED\PROJECT\VS\\..\..\..\..\\LIBS\OPENFRAMEWORKS\GRAPHICS /IC:\USERS\GLLM\CODE\OF_V0.10.0_VS2017_RELEASE\LIBS\OPENFRAMEWORKSCOMPILED\PROJECT\VS\\..\..\..\..\\LIBS\OPENFRAMEWORKS\APP /IC:\USERS\GLLM\CODE\OF_V0.10.0_VS2017_RELEASE\LIBS\OPENFRAMEWORKSCOMPILED\PROJECT\VS\\..\..\..\..\\LIBS\OPENFRAMEWORKS\SOUND /IC:\USERS\GLLM\CODE\OF_V0.10.0_VS2017_RELEASE\LIBS\OPENFRAMEWORKSCOMPILED\PROJECT\VS\\..\..\..\..\\LIBS\OPENFRAMEWORKS\UTILS /IC:\USERS\GLLM\CODE\OF_V0.10.0_VS2017_RELEASE\LIBS\OPENFRAMEWORKSCOMPILED\PROJECT\VS\\..\..\..\..\\LIBS\OPENFRAMEWORKS\COMMUNICATION /IC:\USERS\GLLM\CODE\OF_V0.10.0_VS2017_RELEASE\LIBS\OPENFRAMEWORKSCOMPILED\PROJECT\VS\\..\..\..\..\\LIBS\OPENFRAMEWORKS\VIDEO /IC:\USERS\GLLM\CODE\OF_V0.10.0_VS2017_RELEASE\LIBS\OPENFRAMEWORKSCOMPILED\PROJECT\VS\\..\..\..\..\\LIBS\OPENFRAMEWORKS\TYPES /IC:\USERS\GLLM\CODE\OF_V0.10.0_VS2017_RELEASE\LIBS\OPENFRAMEWORKSCOMPILED\PROJECT\VS\\..\..\..\..\\LIBS\OPENFRAMEWORKS\MATH /IC:\USERS\GLLM\CODE\OF_V0.10.0_VS2017_RELEASE\LIBS\OPENFRAMEWORKSCOMPILED\PROJECT\VS\\..\..\..\..\\LIBS\OPENFRAMEWORKS\3D /IC:\USERS\GLLM\CODE\OF_V0.10.0_VS2017_RELEASE\LIBS\OPENFRAMEWORKSCOMPILED\PROJECT\VS\\..\..\..\..\\LIBS\OPENFRAMEWORKS\GL /IC:\USERS\GLLM\CODE\OF_V0.10.0_VS2017_RELEASE\LIBS\OPENFRAMEWORKSCOMPILED\PROJECT\VS\\..\..\..\..\\LIBS\OPENFRAMEWORKS\EVENTS /IC:\USERS\GLLM\CODE\OF_V0.10.0_VS2017_RELEASE\LIBS\OPENFRAMEWORKSCOMPILED\PROJECT\VS\\..\..\..\..\\LIBS\GLM\INCLUDE /IC:\USERS\GLLM\CODE\OF_V0.10.0_VS2017_RELEASE\LIBS\OPENFRAMEWORKSCOMPILED\PROJECT\VS\\..\..\..\..\\LIBS\RTAUDIO\INCLUDE /IC:\USERS\GLLM\CODE\OF_V0.10.0_VS2017_RELEASE\LIBS\OPENFRAMEWORKSCOMPILED\PROJECT\VS\\..\..\..\..\\LIBS\QUICKTIME\INCLUDE /IC:\USERS\GLLM\CODE\OF_V0.10.0_VS2017_RELEASE\LIBS\OPENFRAMEWORKSCOMPILED\PROJECT\VS\\..\..\..\..\\LIBS\FREETYPE\INCLUDE /IC:\USERS\GLLM\CODE\OF_V0.10.0_VS2017_RELEASE\LIBS\OPENFRAMEWORKSCOMPILED\PROJECT\VS\\..\..\..\..\\LIBS\FREETYPE\INCLUDE\FREETYPE2 /IC:\USERS\GLLM\CODE\OF_V0.10.0_VS2017_RELEASE\LIBS\OPENFRAMEWORKSCOMPILED\PROJECT\VS\\..\..\..\..\\LIBS\FREEIMAGE\INCLUDE /IC:\USERS\GLLM\CODE\OF_V0.10.0_VS2017_RELEASE\LIBS\OPENFRAMEWORKSCOMPILED\PROJECT\VS\\..\..\..\..\\LIBS\FMODEX\INCLUDE /IC:\USERS\GLLM\CODE\OF_V0.10.0_VS2017_RELEASE\LIBS\OPENFRAMEWORKSCOMPILED\PROJECT\VS\\..\..\..\..\\LIBS\VIDEOINPUT\INCLUDE /IC:\USERS\GLLM\CODE\OF_V0.10.0_VS2017_RELEASE\LIBS\OPENFRAMEWORKSCOMPILED\PROJECT\VS\\..\..\..\..\\LIBS\GLEW\INCLUDE\ /IC:\USERS\GLLM\CODE\OF_V0.10.0_VS2017_RELEASE\LIBS\OPENFRAMEWORKSCOMPILED\PROJECT\VS\\..\..\..\..\\LIBS\GLU\INCLUDE /IC:\USERS\GLLM\CODE\OF_V0.10.0_VS2017_RELEASE\LIBS\OPENFRAMEWORKSCOMPILED\PROJECT\VS\\..\..\..\..\\LIBS\TESS2\INCLUDE /IC:\USERS\GLLM\CODE\OF_V0.10.0_VS2017_RELEASE\LIBS\OPENFRAMEWORKSCOMPILED\PROJECT\VS\\..\..\..\..\\LIBS\CAIRO\INCLUDE\CAIRO /IC:\USERS\GLLM\CODE\OF_V0.10.0_VS2017_RELEASE\LIBS\OPENFRAMEWORKSCOMPILED\PROJECT\VS\\..\..\..\..\\LIBS\GLFW\INCLUDE /IC:\USERS\GLLM\CODE\OF_V0.10.0_VS2017_RELEASE\LIBS\OPENFRAMEWORKSCOMPILED\PROJECT\VS\\..\..\..\..\\LIBS\OPENSSL\INCLUDE /IC:\USERS\GLLM\CODE\OF_V0.10.0_VS2017_RELEASE\LIBS\OPENFRAMEWORKSCOMPILED\PROJECT\VS\\..\..\..\..\\LIBS\UTF8\INCLUDE /IC:\USERS\GLLM\CODE\OF_V0.10.0_VS2017_RELEASE\LIBS\OPENFRAMEWORKSCOMPILED\PROJECT\VS\\..\..\..\..\\LIBS\BOOST\INCLUDE /IC:\USERS\GLLM\CODE\OF_V0.10.0_VS2017_RELEASE\LIBS\OPENFRAMEWORKSCOMPILED\PROJECT\VS\\..\..\..\..\\LIBS\JSON\INCLUDE /IC:\USERS\GLLM\CODE\OF_V0.10.0_VS2017_RELEASE\LIBS\OPENFRAMEWORKSCOMPILED\PROJECT\VS\\..\..\..\..\\LIBS\CURL\INCLUDE /IC:\USERS\GLLM\CODE\OF_V0.10.0_VS2017_RELEASE\LIBS\OPENFRAMEWORKSCOMPILED\PROJECT\VS\\..\..\..\..\\LIBS\URIPARSER\INCLUDE /IC:\USERS\GLLM\CODE\OF_V0.10.0_VS2017_RELEASE\LIBS\OPENFRAMEWORKSCOMPILED\PROJECT\VS\\..\..\..\..\\LIBS\PUGIXML\INCLUDE /IC:\USERS\GLLM\CODE\OF_V0.10.0_VS2017_RELEASE\LIBS\OPENFRAMEWORKSCOMPILED\PROJECT\VS\\..\..\..\..\\ADDONS /I..\..\..\ADDONS\OFXGUI\SRC /Zi /nologo /W3 /WX- /diagnostics:classic /Od /D WIN32 /D _DEBUG /D _CONSOLE /D POCO_STATIC /D CAIRO_WIN32_STATIC_BUILD /D DISABLE_SOME_FLOATING_POINT /D CURL_STATICLIB /D _UNICODE /D UNICODE /Gm- /EHsc /RTC1 /MDd /GS /fp:precise /Zc:wchar_t /Zc:forScope /Zc:inline /Fo"OBJ\DEBUG\/..\..\..\ADDONS\OFXGUI\SRC\/" /Fd"OBJ\DEBUG\VC141.PDB" /Gd /TP /FC C:\USERS\GLLM\CODE\OF_V0.10.0_VS2017_RELEASE\ADDONS\OFXGUI\SRC\OFXTOGGLE.CPP
