^C:\USERS\GLLM\CODE\OF_V0.10.0_VS2017_RELEASE\APPS\MYAPPS\ADDONS\OFXGUI\SRC\OFXBASEGUI.OBJ|C:\USERS\GLLM\CODE\OF_V0.10.0_VS2017_RELEASE\APPS\MYAPPS\ADDONS\OFXGUI\SRC\OFXBUTTON.OBJ|C:\USERS\GLLM\CODE\OF_V0.10.0_VS2017_RELEASE\APPS\MYAPPS\ADDONS\OFXGUI\SRC\OFXCOLORPICKER.OBJ|C:\USERS\GLLM\CODE\OF_V0.10.0_VS2017_RELEASE\APPS\MYAPPS\ADDONS\OFXGUI\SRC\OFXGUIGROUP.OBJ|C:\USERS\GLLM\CODE\OF_V0.10.0_VS2017_RELEASE\APPS\MYAPPS\ADDONS\OFXGUI\SRC\OFXINPUTFIELD.OBJ|C:\USERS\GLLM\CODE\OF_V0.10.0_VS2017_RELEASE\APPS\MYAPPS\ADDONS\OFXGUI\SRC\OFXLABEL.OBJ|C:\USERS\GLLM\CODE\OF_V0.10.0_VS2017_RELEASE\APPS\MYAPPS\ADDONS\OFXGUI\SRC\OFXPANEL.OBJ|C:\USERS\GLLM\CODE\OF_V0.10.0_VS2017_RELEASE\APPS\MYAPPS\ADDONS\OFXGUI\SRC\OFXSLIDER.OBJ|C:\USERS\GLLM\CODE\OF_V0.10.0_VS2017_RELEASE\APPS\MYAPPS\ADDONS\OFXGUI\SRC\OFXSLIDERGROUP.OBJ|C:\USERS\GLLM\CODE\OF_V0.10.0_VS2017_RELEASE\APPS\MYAPPS\ADDONS\OFXGUI\SRC\OFXTOGGLE.OBJ|C:\USERS\GLLM\CODE\OF_V0.10.0_VS2017_RELEASE\APPS\MYAPPS\SQUARETRACKING\OBJ\DEBUG\ICON.RES|C:\USERS\GLLM\CODE\OF_V0.10.0_VS2017_RELEASE\APPS\MYAPPS\SQUARETRACKING\OBJ\DEBUG\SRC\MAIN.OBJ|C:\USERS\GLLM\CODE\OF_V0.10.0_VS2017_RELEASE\APPS\MYAPPS\SQUARETRACKING\OBJ\DEBUG\SRC\OFAPP.OBJ|C:\USERS\GLLM\CODE\OF_V0.10.0_VS2017_RELEASE\LIBS\OPENFRAMEWORKSCOMPILED\LIB\VS\X64\OPENFRAMEWORKSLIB_DEBUG.LIB
C:\USERS\GLLM\CODE\OF_V0.10.0_VS2017_RELEASE\LIBS\CAIRO\LIB\VS\X64\CAIRO-STATIC.LIB
C:\USERS\GLLM\CODE\OF_V0.10.0_VS2017_RELEASE\LIBS\CAIRO\LIB\VS\X64\PIXMAN-1.LIB
C:\USERS\GLLM\CODE\OF_V0.10.0_VS2017_RELEASE\LIBS\CAIRO\LIB\VS\X64\LIBPNG.LIB
C:\USERS\GLLM\CODE\OF_V0.10.0_VS2017_RELEASE\LIBS\CAIRO\LIB\VS\X64\ZLIB.LIB
C:\PROGRAM FILES (X86)\WINDOWS KITS\10\LIB\10.0.17134.0\UM\X64\MSIMG32.LIB
C:\PROGRAM FILES (X86)\WINDOWS KITS\10\LIB\10.0.17134.0\UM\X64\OPENGL32.LIB
C:\PROGRAM FILES (X86)\WINDOWS KITS\10\LIB\10.0.17134.0\UM\X64\KERNEL32.LIB
C:\PROGRAM FILES (X86)\WINDOWS KITS\10\LIB\10.0.17134.0\UM\X64\SETUPAPI.LIB
C:\PROGRAM FILES (X86)\WINDOWS KITS\10\LIB\10.0.17134.0\UM\X64\VFW32.LIB
C:\PROGRAM FILES (X86)\WINDOWS KITS\10\LIB\10.0.17134.0\UM\X64\COMCTL32.LIB
C:\USERS\GLLM\CODE\OF_V0.10.0_VS2017_RELEASE\LIBS\RTAUDIO\LIB\VS\X64\RTAUDIOD.LIB
C:\USERS\GLLM\CODE\OF_V0.10.0_VS2017_RELEASE\LIBS\VIDEOINPUT\LIB\VS\X64\VIDEOINPUTD.LIB
C:\USERS\GLLM\CODE\OF_V0.10.0_VS2017_RELEASE\LIBS\FREETYPE\LIB\VS\X64\LIBFREETYPE.LIB
C:\USERS\GLLM\CODE\OF_V0.10.0_VS2017_RELEASE\LIBS\FREEIMAGE\LIB\VS\X64\FREEIMAGE.LIB
C:\PROGRAM FILES (X86)\WINDOWS KITS\10\LIB\10.0.17134.0\UM\X64\DSOUND.LIB
C:\PROGRAM FILES (X86)\WINDOWS KITS\10\LIB\10.0.17134.0\UM\X64\USER32.LIB
C:\PROGRAM FILES (X86)\WINDOWS KITS\10\LIB\10.0.17134.0\UM\X64\GDI32.LIB
C:\PROGRAM FILES (X86)\WINDOWS KITS\10\LIB\10.0.17134.0\UM\X64\WINSPOOL.LIB
C:\PROGRAM FILES (X86)\WINDOWS KITS\10\LIB\10.0.17134.0\UM\X64\COMDLG32.LIB
C:\PROGRAM FILES (X86)\WINDOWS KITS\10\LIB\10.0.17134.0\UM\X64\ADVAPI32.LIB
C:\PROGRAM FILES (X86)\WINDOWS KITS\10\LIB\10.0.17134.0\UM\X64\SHELL32.LIB
C:\PROGRAM FILES (X86)\WINDOWS KITS\10\LIB\10.0.17134.0\UM\X64\OLE32.LIB
C:\PROGRAM FILES (X86)\WINDOWS KITS\10\LIB\10.0.17134.0\UM\X64\OLEAUT32.LIB
C:\PROGRAM FILES (X86)\WINDOWS KITS\10\LIB\10.0.17134.0\UM\X64\UUID.LIB
C:\USERS\GLLM\CODE\OF_V0.10.0_VS2017_RELEASE\LIBS\GLEW\LIB\VS\X64\GLEW32S.LIB
C:\USERS\GLLM\CODE\OF_V0.10.0_VS2017_RELEASE\LIBS\FMODEX\LIB\VS\X64\FMODEX64_VC.LIB
C:\USERS\GLLM\CODE\OF_V0.10.0_VS2017_RELEASE\LIBS\OPENSSL\LIB\VS\X64\LIBSSL.LIB
C:\USERS\GLLM\CODE\OF_V0.10.0_VS2017_RELEASE\LIBS\OPENSSL\LIB\VS\X64\LIBCRYPTO.LIB
C:\PROGRAM FILES (X86)\WINDOWS KITS\10\LIB\10.0.17134.0\UM\X64\CRYPT32.LIB
C:\USERS\GLLM\CODE\OF_V0.10.0_VS2017_RELEASE\LIBS\CURL\LIB\VS\X64\LIBCURL.LIB
C:\USERS\GLLM\CODE\OF_V0.10.0_VS2017_RELEASE\LIBS\URIPARSER\LIB\VS\X64\URIPARSER.LIB
C:\USERS\GLLM\CODE\OF_V0.10.0_VS2017_RELEASE\LIBS\PUGIXML\LIB\VS\X64\PUGIXMLD.LIB
C:\PROGRAM FILES (X86)\WINDOWS KITS\10\LIB\10.0.17134.0\UM\X64\WS2_32.LIB
C:\USERS\GLLM\CODE\OF_V0.10.0_VS2017_RELEASE\LIBS\TESS2\LIB\VS\X64\TESS2.LIB
C:\USERS\GLLM\CODE\OF_V0.10.0_VS2017_RELEASE\LIBS\GLFW\LIB\VS\X64\GLFW3.LIB
C:\PROGRAM FILES (X86)\WINDOWS KITS\10\LIB\10.0.17134.0\UM\X64\WINMM.LIB
C:\PROGRAM FILES (X86)\WINDOWS KITS\10\LIB\10.0.17134.0\UM\X64\ODBC32.LIB
C:\PROGRAM FILES (X86)\WINDOWS KITS\10\LIB\10.0.17134.0\UM\X64\ODBCCP32.LIB
C:\PROGRAM FILES (X86)\WINDOWS KITS\10\LIB\10.0.17134.0\UM\X64\WLDAP32.LIB
C:\USERS\GLLM\CODE\OF_V0.10.0_VS2017_RELEASE\APPS\MYAPPS\SQUARETRACKING\OBJ\DEBUG\ICON.RES
C:\USERS\GLLM\CODE\OF_V0.10.0_VS2017_RELEASE\APPS\MYAPPS\SQUARETRACKING\OBJ\DEBUG\SRC\MAIN.OBJ
C:\USERS\GLLM\CODE\OF_V0.10.0_VS2017_RELEASE\APPS\MYAPPS\SQUARETRACKING\OBJ\DEBUG\SRC\OFAPP.OBJ
C:\USERS\GLLM\CODE\OF_V0.10.0_VS2017_RELEASE\APPS\MYAPPS\ADDONS\OFXGUI\SRC\OFXBASEGUI.OBJ
C:\USERS\GLLM\CODE\OF_V0.10.0_VS2017_RELEASE\APPS\MYAPPS\ADDONS\OFXGUI\SRC\OFXBUTTON.OBJ
C:\USERS\GLLM\CODE\OF_V0.10.0_VS2017_RELEASE\APPS\MYAPPS\ADDONS\OFXGUI\SRC\OFXCOLORPICKER.OBJ
C:\USERS\GLLM\CODE\OF_V0.10.0_VS2017_RELEASE\APPS\MYAPPS\ADDONS\OFXGUI\SRC\OFXGUIGROUP.OBJ
C:\USERS\GLLM\CODE\OF_V0.10.0_VS2017_RELEASE\APPS\MYAPPS\ADDONS\OFXGUI\SRC\OFXINPUTFIELD.OBJ
C:\USERS\GLLM\CODE\OF_V0.10.0_VS2017_RELEASE\APPS\MYAPPS\ADDONS\OFXGUI\SRC\OFXLABEL.OBJ
C:\USERS\GLLM\CODE\OF_V0.10.0_VS2017_RELEASE\APPS\MYAPPS\ADDONS\OFXGUI\SRC\OFXPANEL.OBJ
C:\USERS\GLLM\CODE\OF_V0.10.0_VS2017_RELEASE\APPS\MYAPPS\ADDONS\OFXGUI\SRC\OFXSLIDER.OBJ
C:\USERS\GLLM\CODE\OF_V0.10.0_VS2017_RELEASE\APPS\MYAPPS\ADDONS\OFXGUI\SRC\OFXSLIDERGROUP.OBJ
C:\USERS\GLLM\CODE\OF_V0.10.0_VS2017_RELEASE\APPS\MYAPPS\ADDONS\OFXGUI\SRC\OFXTOGGLE.OBJ
C:\USERS\GLLM\CODE\OF_V0.10.0_VS2017_RELEASE\LIBS\OPENFRAMEWORKSCOMPILED\LIB\VS\X64\OPENFRAMEWORKSLIB_DEBUG.LIB
C:\WINDOWS\GLOBALIZATION\SORTING\SORTDEFAULT.NLS
C:\PROGRAM FILES (X86)\MICROSOFT VISUAL STUDIO\2017\COMMUNITY\VC\TOOLS\MSVC\14.14.26428\LIB\X64\MSVCPRTD.LIB
C:\USERS\GLLM\CODE\OF_V0.10.0_VS2017_RELEASE\LIBS\BOOST\LIB\VS\X64\LIBBOOST_FILESYSTEM-VC141-MT-GD-1_64.LIB
C:\USERS\GLLM\CODE\OF_V0.10.0_VS2017_RELEASE\LIBS\BOOST\LIB\VS\X64\LIBBOOST_SYSTEM-VC141-MT-GD-1_64.LIB
C:\PROGRAM FILES (X86)\WINDOWS KITS\10\LIB\10.0.17134.0\UM\X64\STRMIIDS.LIB
C:\PROGRAM FILES (X86)\MICROSOFT VISUAL STUDIO\2017\COMMUNITY\VC\TOOLS\MSVC\14.14.26428\LIB\X64\MSVCRTD.LIB
C:\PROGRAM FILES (X86)\MICROSOFT VISUAL STUDIO\2017\COMMUNITY\VC\TOOLS\MSVC\14.14.26428\LIB\X64\OLDNAMES.LIB
C:\PROGRAM FILES (X86)\MICROSOFT VISUAL STUDIO\2017\COMMUNITY\VC\TOOLS\MSVC\14.14.26428\LIB\X64\VCRUNTIMED.LIB
C:\PROGRAM FILES (X86)\WINDOWS KITS\10\LIB\10.0.17134.0\UCRT\X64\UCRTD.LIB
C:\PROGRAM FILES (X86)\MICROSOFT VISUAL STUDIO\2017\COMMUNITY\VC\TOOLS\MSVC\14.14.26428\BIN\HOSTX86\X64\1033\LINKUI.DLL
C:\PROGRAM FILES (X86)\WINDOWS KITS\10\BIN\10.0.17134.0\X86\RC.EXE
C:\PROGRAM FILES (X86)\MICROSOFT VISUAL STUDIO\2017\COMMUNITY\VC\TOOLS\MSVC\14.14.26428\BIN\HOSTX86\X86\CVTRES.EXE
